-1,-1,69.43102,-28.57256,1.16688,519.57,23,24
-1,-1,65.51512,-28.47106,4.01959,518.77,24,24
-1,-1,60.62742,-27.71624,4.46359,517.97,24,24
-1,-1,48.33471,-25.28374,4.69947,516.37,24,24
-1,-1,41.73124,-24.47491,4.7502,515.57,24,24
-1,-1,36.34641,-23.52155,6.135,514.76,24,24
-1,-1,21.51827,-16.16223,5.68792,513.96,24,24
-1,-1,21.07037,-15.14634,5.3033,512.36,24,24
-1,-1,22.14911,-16.84611,3.74567,511.56,24,24
-1,-1,23.9667,-26.09017,2.63148,510.76,24,24
-1,-1,24.60407,-31.15942,4.07452,509.96,24,24
-1,-1,9.63345,-17.77889,3.29033,508.36,24,24
-1,-1,5.22785,-26.29557,5.57241,507.56,24,24
-1,-1,9.48954,-27.36268,8.18036,506.76,24,24
-1,-1,-0.27502,-24.08779,0.58941,505.95,24,24