1610612750,708,65.96699,-42.14375,-1,519.57,23,24
1610612750,2419,8.38424,-1.06873,-1,519.57,23,24
1610612750,201937,71.54569,-29.86479,-1,519.57,23,24
1610612750,203952,19.16653,-43.4148,-1,519.57,23,24
1610612750,1626157,22.12176,-33.13069,-1,519.57,23,24
1610612759,1495,20.51732,-26.25405,-1,519.57,23,24
1610612759,2225,36.10902,-24.56831,-1,519.57,23,24
1610612759,200746,14.98623,-30.67863,-1,519.57,23,24
1610612759,201980,9.40439,-10.08878,-1,519.57,23,24
1610612759,202695,13.42251,-37.00295,-1,519.57,23,24
1610612750,708,56.88414,-36.77608,-1,518.77,24,24
1610612750,2419,5.69548,-1.59548,-1,518.77,24,24
1610612750,201937,66.59015,-29.6763,-1,518.77,24,24
1610612750,203952,15.65452,-43.57579,-1,518.77,24,24
1610612750,1626157,21.2909,-32.78505,-1,518.77,24,24
1610612759,1495,19.83568,-24.70003,-1,518.77,24,24
1610612759,2225,34.8847,-25.3814,-1,518.77,24,24
1610612759,200746,13.85782,-30.87719,-1,518.77,24,24
1610612759,201980,7.44761,-10.58718,-1,518.77,24,24
1610612759,202695,10.67813,-38.1569,-1,518.77,24,24
1610612750,708,47.26802,-30.99701,-1,517.97,24,24
1610612750,2419,3.61338,-3.30109,-1,517.97,24,24
1610612750,201937,61.43675,-28.65545,-1,517.97,24,24
1610612750,203952,12.52713,-44.39212,-1,517.97,24,24
1610612750,1626157,21.75956,-32.94776,-1,517.97,24,24
1610612759,1495,19.75084,-23.90039,-1,517.97,24,24
1610612759,2225,33.52063,-26.04921,-1,517.97,24,24
1610612759,200746,14.64531,-30.82957,-1,517.97,24,24
1610612759,201980,5.80865,-9.86587,-1,517.97,24,24
1610612759,202695,8.41109,-39.22786,-1,517.97,24,24
1610612750,708,27.74564,-21.43181,-1,516.37,24,24
1610612750,2419,1.02982,-3.72006,-1,516.37,24,24
1610612750,201937,49.12435,-26.43732,-1,516.37,24,24
1610612750,203952,7.08483,-45.2042,-1,516.37,24,24
1610612750,1626157,22.42103,-32.09554,-1,516.37,24,24
1610612759,1495,18.42809,-20.82391,-1,516.37,24,24
1610612759,2225,31.78778,-26.24055,-1,516.37,24,24
1610612759,200746,19.43198,-31.08162,-1,516.37,24,24
1610612759,201980,3.71973,-11.24363,-1,516.37,24,24
1610612759,202695,7.6815,-39.68498,-1,516.37,24,24
1610612750,708,19.11102,-18.77331,-1,515.57,24,24
1610612750,2419,0.51803,-3.46299,-1,515.57,24,24
1610612750,201937,42.50506,-25.36068,-1,515.57,24,24
1610612750,203952,5.29603,-46.21168,-1,515.57,24,24
1610612750,1626157,23.02124,-31.92467,-1,515.57,24,24
1610612759,1495,16.49565,-20.20705,-1,515.57,24,24
1610612759,2225,29.89742,-25.1965,-1,515.57,24,24
1610612759,200746,21.46687,-30.71897,-1,515.57,24,24
1610612759,201980,2.63613,-11.60803,-1,515.57,24,24
1610612759,202695,6.74485,-39.45745,-1,515.57,24,24
1610612750,708,17.62657,-17.32033,-1,514.76,24,24
1610612750,2419,1.06809,-2.33463,-1,514.76,24,24
1610612750,201937,36.83944,-25.08217,-1,514.76,24,24
1610612750,203952,3.82744,-47.32229,-1,514.76,24,24
1610612750,1626157,23.96335,-31.3269,-1,514.76,24,24
1610612759,1495,14.53486,-21.52018,-1,514.76,24,24
1610612759,2225,28.03314,-24.74782,-1,514.76,24,24
1610612759,200746,22.15477,-29.9537,-1,514.76,24,24
1610612759,201980,3.04698,-12.44516,-1,514.76,24,24
1610612759,202695,6.54288,-40.42434,-1,514.76,24,24
1610612750,708,21.04392,-15.21655,-1,513.96,24,24
1610612750,2419,1.90215,-1.96654,-1,513.96,24,24
1610612750,201937,31.69104,-27.51947,-1,513.96,24,24
1610612750,203952,3.39405,-47.81185,-1,513.96,24,24
1610612750,1626157,24.26763,-30.91042,-1,513.96,24,24
1610612759,1495,15.45698,-20.0579,-1,513.96,24,24
1610612759,2225,25.16542,-25.30876,-1,513.96,24,24
1610612759,200746,21.6078,-29.34844,-1,513.96,24,24
1610612759,201980,4.20893,-12.34011,-1,513.96,24,24
1610612759,202695,6.07479,-41.93193,-1,513.96,24,24
1610612750,708,21.13773,-14.0047,-1,512.36,24,24
1610612750,2419,4.30719,-1.63793,-1,512.36,24,24
1610612750,201937,15.17468,-38.19728,-1,512.36,24,24
1610612750,203952,3.49328,-47.46584,-1,512.36,24,24
1610612750,1626157,20.96508,-35.24649,-1,512.36,24,24
1610612759,1495,16.97831,-17.89263,-1,512.36,24,24
1610612759,2225,13.62665,-30.22823,-1,512.36,24,24
1610612759,200746,18.77213,-28.75476,-1,512.36,24,24
1610612759,201980,4.95699,-11.21852,-1,512.36,24,24
1610612759,202695,4.13916,-43.95154,-1,512.36,24,24
1610612750,708,21.35086,-15.67748,-1,511.56,24,24
1610612750,2419,5.70055,-2.03217,-1,511.56,24,24
1610612750,201937,10.10718,-42.93358,-1,511.56,24,24
1610612750,203952,8.35285,-46.62318,-1,511.56,24,24
1610612750,1626157,15.77633,-38.15904,-1,511.56,24,24
1610612759,1495,16.5214,-16.74161,-1,511.56,24,24
1610612759,2225,9.37706,-33.05386,-1,511.56,24,24
1610612759,200746,13.46019,-30.89773,-1,511.56,24,24
1610612759,201980,5.73351,-10.69328,-1,511.56,24,24
1610612759,202695,6.06279,-46.65464,-1,511.56,24,24
1610612750,708,22.50451,-24.338,-1,510.76,24,24
1610612750,2419,6.72806,-2.2008,-1,510.76,24,24
1610612750,201937,11.44092,-46.57515,-1,510.76,24,24
1610612750,203952,17.45415,-42.59874,-1,510.76,24,24
1610612750,1626157,15.99163,-41.30089,-1,510.76,24,24
1610612759,1495,17.23752,-21.96044,-1,510.76,24,24
1610612759,2225,7.1815,-36.03872,-1,510.76,24,24
1610612759,200746,10.905,-31.6608,-1,510.76,24,24
1610612759,201980,6.64456,-11.85892,-1,510.76,24,24
1610612759,202695,16.23208,-45.63387,-1,510.76,24,24
1610612750,708,20.90322,-32.2553,-1,509.96,24,24
1610612750,2419,7.20332,-2.26556,-1,509.96,24,24
1610612750,201937,11.23055,-47.48341,-1,509.96,24,24
1610612750,203952,23.85866,-32.06864,-1,509.96,24,24
1610612750,1626157,16.73777,-42.0648,-1,509.96,24,24
1610612759,1495,18.15015,-26.55063,-1,509.96,24,24
1610612759,2225,8.15563,-39.36826,-1,509.96,24,24
1610612759,200746,11.05935,-31.40499,-1,509.96,24,24
1610612759,201980,7.28238,-13.95382,-1,509.96,24,24
1610612759,202695,22.70576,-36.2032,-1,509.96,24,24
1610612750,708,9.62522,-32.12542,-1,508.36,24,24
1610612750,2419,8.31159,-2.66014,-1,508.36,24,24
1610612750,201937,9.41675,-47.61207,-1,508.36,24,24
1610612750,203952,10.41233,-18.2492,-1,508.36,24,24
1610612750,1626157,16.26675,-37.94361,-1,508.36,24,24
1610612759,1495,10.76113,-20.17573,-1,508.36,24,24
1610612759,2225,10.67452,-41.59964,-1,508.36,24,24
1610612759,200746,8.51398,-30.0564,-1,508.36,24,24
1610612759,201980,7.29678,-15.48716,-1,508.36,24,24
1610612759,202695,14.62003,-21.75966,-1,508.36,24,24
1610612750,708,5.68203,-34.51639,-1,507.56,24,24
1610612750,2419,11.0074,-4.41953,-1,507.56,24,24
1610612750,201937,6.67678,-47.92101,-1,507.56,24,24
1610612750,203952,3.67203,-22.72346,-1,507.56,24,24
1610612750,1626157,16.39908,-32.7852,-1,507.56,24,24
1610612759,1495,3.85526,-22.0402,-1,507.56,24,24
1610612759,2225,10.21176,-40.71405,-1,507.56,24,24
1610612759,200746,5.45178,-31.09283,-1,507.56,24,24
1610612759,201980,6.58454,-16.80872,-1,507.56,24,24
1610612759,202695,6.71629,-23.3087,-1,507.56,24,24
1610612750,708,4.46545,-36.38104,-1,506.76,24,24
1610612750,2419,14.77642,-7.55279,-1,506.76,24,24
1610612750,201937,6.64337,-47.94321,-1,506.76,24,24
1610612750,203952,-0.25236,-28.29431,-1,506.76,24,24
1610612750,1626157,10.16239,-27.19094,-1,506.76,24,24
1610612759,1495,1.50176,-24.04581,-1,506.76,24,24
1610612759,2225,12.03551,-38.88998,-1,506.76,24,24
1610612759,200746,5.46615,-33.01181,-1,506.76,24,24
1610612759,201980,7.25881,-18.42045,-1,506.76,24,24
1610612759,202695,3.17316,-26.67411,-1,506.76,24,24
1610612750,708,6.6659,-35.38756,-1,505.95,24,24
1610612750,2419,19.60472,-10.30301,-1,505.95,24,24
1610612750,201937,10.41819,-45.781,-1,505.95,24,24
1610612750,203952,3.32374,-31.32299,-1,505.95,24,24
1610612750,1626157,4.7793,-26.33388,-1,505.95,24,24
1610612759,1495,0.62599,-25.83847,-1,505.95,24,24
1610612759,2225,13.29361,-33.74781,-1,505.95,24,24
1610612759,200746,6.4833,-33.51222,-1,505.95,24,24
1610612759,201980,8.37134,-19.07753,-1,505.95,24,24
1610612759,202695,3.81893,-28.41975,-1,505.95,24,24