%YAML 1.1
%TAG !u! tag:unity3d.com,2011:
--- !u!29 &1
OcclusionCullingSettings:
  m_ObjectHideFlags: 0
  serializedVersion: 2
  m_OcclusionBakeSettings:
    smallestOccluder: 5
    smallestHole: 0.25
    backfaceThreshold: 100
  m_SceneGUID: 00000000000000000000000000000000
  m_OcclusionCullingData: {fileID: 0}
--- !u!104 &2
RenderSettings:
  m_ObjectHideFlags: 0
  serializedVersion: 8
  m_Fog: 0
  m_FogColor: {r: 0.5, g: 0.5, b: 0.5, a: 1}
  m_FogMode: 3
  m_FogDensity: 0.01
  m_LinearFogStart: 0
  m_LinearFogEnd: 300
  m_AmbientSkyColor: {r: 0.9117647, g: 0.9117647, b: 0.9117647, a: 1}
  m_AmbientEquatorColor: {r: 0.8308824, g: 0.8308824, b: 0.8308824, a: 1}
  m_AmbientGroundColor: {r: 0.75735295, g: 0.75735295, b: 0.75735295, a: 1}
  m_AmbientIntensity: 1
  m_AmbientMode: 1
  m_SubtractiveShadowColor: {r: 0.42, g: 0.478, b: 0.627, a: 1}
  m_SkyboxMaterial: {fileID: 0}
  m_HaloStrength: 0.5
  m_FlareStrength: 1
  m_FlareFadeSpeed: 3
  m_HaloTexture: {fileID: 0}
  m_SpotCookie: {fileID: 10001, guid: 0000000000000000e000000000000000, type: 0}
  m_DefaultReflectionMode: 1
  m_DefaultReflectionResolution: 128
  m_ReflectionBounces: 2
  m_ReflectionIntensity: 1
  m_CustomReflection: {fileID: 8900000, guid: f94eb49e1aedc784894a46230ba09126, type: 3}
  m_Sun: {fileID: 0}
  m_IndirectSpecularColor: {r: 0, g: 0, b: 0, a: 1}
--- !u!157 &4
LightmapSettings:
  m_ObjectHideFlags: 0
  serializedVersion: 9
  m_GIWorkflowMode: 1
  m_GISettings:
    serializedVersion: 2
    m_BounceScale: 1
    m_IndirectOutputScale: 1
    m_AlbedoBoost: 1
    m_TemporalCoherenceThreshold: 1
    m_EnvironmentLightingMode: 0
    m_EnableBakedLightmaps: 0
    m_EnableRealtimeLightmaps: 1
  m_LightmapEditorSettings:
    serializedVersion: 8
    m_Resolution: 1
    m_BakeResolution: 1
    m_TextureWidth: 1024
    m_TextureHeight: 1024
    m_AO: 1
    m_AOMaxDistance: 1
    m_CompAOExponent: 1
    m_CompAOExponentDirect: 0
    m_Padding: 2
    m_LightmapParameters: {fileID: 0}
    m_LightmapsBakeMode: 0
    m_TextureCompression: 1
    m_FinalGather: 0
    m_FinalGatherFiltering: 1
    m_FinalGatherRayCount: 1024
    m_ReflectionCompression: 2
    m_MixedBakeMode: 1
    m_BakeBackend: 0
    m_PVRSampling: 1
    m_PVRDirectSampleCount: 32
    m_PVRSampleCount: 500
    m_PVRBounces: 2
    m_PVRFiltering: 0
    m_PVRFilteringMode: 1
    m_PVRCulling: 1
    m_PVRFilteringGaussRadiusDirect: 1
    m_PVRFilteringGaussRadiusIndirect: 5
    m_PVRFilteringGaussRadiusAO: 2
    m_PVRFilteringAtrousColorSigma: 1
    m_PVRFilteringAtrousNormalSigma: 1
    m_PVRFilteringAtrousPositionSigma: 1
  m_LightingDataAsset: {fileID: 112000002, guid: 17aff8f7a6aab1f449b0329dd76f761c,
    type: 2}
  m_ShadowMaskMode: 2
--- !u!196 &5
NavMeshSettings:
  serializedVersion: 2
  m_ObjectHideFlags: 0
  m_BuildSettings:
    serializedVersion: 2
    agentTypeID: 0
    agentRadius: 0.5
    agentHeight: 2
    agentSlope: 45
    agentClimb: 0.4
    ledgeDropHeight: 0
    maxJumpAcrossDistance: 0
    minRegionArea: 2
    manualCellSize: 0
    cellSize: 0.16666667
    manualTileSize: 0
    tileSize: 256
    accuratePlacement: 0
  m_NavMeshData: {fileID: 0}
--- !u!114 &36352810
MonoBehaviour:
  m_ObjectHideFlags: 0
  m_PrefabParentObject: {fileID: 11425090, guid: 863a0315eb7aa5349ba3dd88bfdbc120,
    type: 2}
  m_PrefabInternal: {fileID: 0}
  m_GameObject: {fileID: 867218951}
  m_Enabled: 1
  m_EditorHideFlags: 0
  m_Script: {fileID: -765806418, guid: f5f67c52d1564df4a8936ccd202a3bd8, type: 3}
  m_Name: 
  m_EditorClassIdentifier: 
  m_Material: {fileID: 0}
  m_Color: {r: 0.13333334, g: 0.17254902, b: 0.21568628, a: 0.78431374}
  m_RaycastTarget: 1
  m_OnCullStateChanged:
    m_PersistentCalls:
      m_Calls: []
    m_TypeName: UnityEngine.UI.MaskableGraphic+CullStateChangedEvent, UnityEngine.UI,
      Version=1.0.0.0, Culture=neutral, PublicKeyToken=null
  m_Sprite: {fileID: 10907, guid: 0000000000000000f000000000000000, type: 0}
  m_Type: 1
  m_PreserveAspect: 0
  m_FillCenter: 1
  m_FillMethod: 4
  m_FillAmount: 1
  m_FillClockwise: 1
  m_FillOrigin: 0
--- !u!1 &84724686
GameObject:
  m_ObjectHideFlags: 0
  m_PrefabParentObject: {fileID: 123798, guid: cb6e955ed2fa8094eaf245a9707e581a, type: 2}
  m_PrefabInternal: {fileID: 0}
  serializedVersion: 5
  m_Component:
  - component: {fileID: 84724687}
  - component: {fileID: 84724689}
  - component: {fileID: 84724688}
  m_Layer: 5
  m_Name: BodyText
  m_TagString: Untagged
  m_Icon: {fileID: 0}
  m_NavMeshLayer: 0
  m_StaticEditorFlags: 0
  m_IsActive: 1
--- !u!224 &84724687
RectTransform:
  m_ObjectHideFlags: 0
  m_PrefabParentObject: {fileID: 22492946, guid: cb6e955ed2fa8094eaf245a9707e581a,
    type: 2}
  m_PrefabInternal: {fileID: 0}
  m_GameObject: {fileID: 84724686}
  m_LocalRotation: {x: 0, y: 0, z: 0, w: 1}
  m_LocalPosition: {x: 0, y: 0, z: 0}
  m_LocalScale: {x: 1, y: 1, z: 1}
  m_Children: []
  m_Father: {fileID: 1244085694}
  m_RootOrder: 1
  m_LocalEulerAnglesHint: {x: 0, y: 0, z: 0}
  m_AnchorMin: {x: 0.5, y: 0.5}
  m_AnchorMax: {x: 0.5, y: 0.5}
  m_AnchoredPosition: {x: 0, y: 9.95}
  m_SizeDelta: {x: 160, y: 30}
  m_Pivot: {x: 0.5, y: 1}
--- !u!114 &84724688
MonoBehaviour:
  m_ObjectHideFlags: 0
  m_PrefabParentObject: {fileID: 11459540, guid: cb6e955ed2fa8094eaf245a9707e581a,
    type: 2}
  m_PrefabInternal: {fileID: 0}
  m_GameObject: {fileID: 84724686}
  m_Enabled: 1
  m_EditorHideFlags: 0
  m_Script: {fileID: 708705254, guid: f5f67c52d1564df4a8936ccd202a3bd8, type: 3}
  m_Name: 
  m_EditorClassIdentifier: 
  m_Material: {fileID: 0}
  m_Color: {r: 0.13333334, g: 0.17254902, b: 0.21568628, a: 1}
  m_RaycastTarget: 1
  m_OnCullStateChanged:
    m_PersistentCalls:
      m_Calls: []
    m_TypeName: UnityEngine.UI.MaskableGraphic+CullStateChangedEvent, UnityEngine.UI,
      Version=1.0.0.0, Culture=neutral, PublicKeyToken=null
  m_FontData:
    m_Font: {fileID: 12800000, guid: 8c740fb154a0e534aa1c489395c538fb, type: 3}
    m_FontSize: 10
    m_FontStyle: 0
    m_BestFit: 0
    m_MinSize: 10
    m_MaxSize: 40
    m_Alignment: 1
    m_AlignByGeometry: 0
    m_RichText: 1
    m_HorizontalOverflow: 1
    m_VerticalOverflow: 1
    m_LineSpacing: 1
  m_Text: "<b>LOOK AT</b> INTERACTABLES, \n<b>HOLD YOUR GAZE</b> TO SELECT\r\nLet\u2019s
    start! Keep ballin'!"
--- !u!222 &84724689
CanvasRenderer:
  m_ObjectHideFlags: 0
  m_PrefabParentObject: {fileID: 22296662, guid: cb6e955ed2fa8094eaf245a9707e581a,
    type: 2}
  m_PrefabInternal: {fileID: 0}
  m_GameObject: {fileID: 84724686}
--- !u!4 &143249927
Transform:
  m_ObjectHideFlags: 0
  m_PrefabParentObject: {fileID: 422532, guid: 50ce765ecb72518498e9608f19020f8a, type: 2}
  m_PrefabInternal: {fileID: 0}
  m_GameObject: {fileID: 606295501}
  m_LocalRotation: {x: 0, y: 0, z: 0, w: 1}
  m_LocalPosition: {x: 0, y: 2, z: 0}
  m_LocalScale: {x: 1, y: 1, z: 1}
  m_Children:
  - {fileID: 841373304}
  - {fileID: 824249377}
  - {fileID: 1813455385}
  m_Father: {fileID: 1591880578}
  m_RootOrder: 3
  m_LocalEulerAnglesHint: {x: 0, y: 0, z: 0}
--- !u!4 &184923207
Transform:
  m_ObjectHideFlags: 0
  m_PrefabParentObject: {fileID: 400000, guid: 5925e5b92c4262e4eb73101058b15799, type: 3}
  m_PrefabInternal: {fileID: 0}
  m_GameObject: {fileID: 436362672}
  m_LocalRotation: {x: 0, y: 0, z: 0, w: 1}
  m_LocalPosition: {x: 0, y: 0, z: 0}
  m_LocalScale: {x: 1, y: 1, z: 1}
  m_Children: []
  m_Father: {fileID: 1808707147}
  m_RootOrder: 0
  m_LocalEulerAnglesHint: {x: 0, y: 0, z: 0}
--- !u!4 &205350875
Transform:
  m_ObjectHideFlags: 0
  m_PrefabParentObject: {fileID: 465574, guid: 2dda78a7affe63a4d81e05200cc3429d, type: 2}
  m_PrefabInternal: {fileID: 0}
  m_GameObject: {fileID: 1903277235}
  m_LocalRotation: {x: 0.7071068, y: 0, z: 0, w: 0.7071067}
  m_LocalPosition: {x: 0, y: 0.01, z: 0}
  m_LocalScale: {x: 1, y: 1, z: 1}
  m_Children: []
  m_Father: {fileID: 1808707147}
  m_RootOrder: 1
  m_LocalEulerAnglesHint: {x: 0, y: 0, z: 0}
--- !u!224 &423507110
RectTransform:
  m_ObjectHideFlags: 0
  m_PrefabParentObject: {fileID: 22402564, guid: cb6e955ed2fa8094eaf245a9707e581a,
    type: 2}
  m_PrefabInternal: {fileID: 0}
  m_GameObject: {fileID: 423507112}
  m_LocalRotation: {x: 0, y: 0, z: 0, w: 1}
  m_LocalPosition: {x: 0, y: 0, z: 8.27}
  m_LocalScale: {x: 0.04451718, y: 0.044517178, z: 0.044517178}
  m_Children:
  - {fileID: 1271789583}
  - {fileID: 1211322430}
  m_Father: {fileID: 855431570}
  m_RootOrder: 0
  m_LocalEulerAnglesHint: {x: 0, y: 0, z: 0}
  m_AnchorMin: {x: 0, y: 0}
  m_AnchorMax: {x: 0, y: 0}
  m_AnchoredPosition: {x: 0, y: 1.7}
  m_SizeDelta: {x: 250, y: 150}
  m_Pivot: {x: 0.5, y: 0.5}
--- !u!1 &423507112
GameObject:
  m_ObjectHideFlags: 0
  m_PrefabParentObject: {fileID: 193722, guid: cb6e955ed2fa8094eaf245a9707e581a, type: 2}
  m_PrefabInternal: {fileID: 0}
  serializedVersion: 5
  m_Component:
  - component: {fileID: 423507110}
  - component: {fileID: 423507115}
  - component: {fileID: 423507114}
  - component: {fileID: 423507113}
  m_Layer: 5
  m_Name: IntroComplete
  m_TagString: Untagged
  m_Icon: {fileID: 0}
  m_NavMeshLayer: 0
  m_StaticEditorFlags: 0
  m_IsActive: 1
--- !u!225 &423507113
CanvasGroup:
  m_ObjectHideFlags: 0
  m_PrefabParentObject: {fileID: 0}
  m_PrefabInternal: {fileID: 0}
  m_GameObject: {fileID: 423507112}
  m_Enabled: 1
  m_Alpha: 0
  m_Interactable: 1
  m_BlocksRaycasts: 1
  m_IgnoreParentGroups: 0
--- !u!114 &423507114
MonoBehaviour:
  m_ObjectHideFlags: 0
  m_PrefabParentObject: {fileID: 11419582, guid: cb6e955ed2fa8094eaf245a9707e581a,
    type: 2}
  m_PrefabInternal: {fileID: 0}
  m_GameObject: {fileID: 423507112}
  m_Enabled: 1
  m_EditorHideFlags: 0
  m_Script: {fileID: 1980459831, guid: f5f67c52d1564df4a8936ccd202a3bd8, type: 3}
  m_Name: 
  m_EditorClassIdentifier: 
  m_UiScaleMode: 0
  m_ReferencePixelsPerUnit: 1
  m_ScaleFactor: 1
  m_ReferenceResolution: {x: 800, y: 600}
  m_ScreenMatchMode: 0
  m_MatchWidthOrHeight: 0
  m_PhysicalUnit: 3
  m_FallbackScreenDPI: 96
  m_DefaultSpriteDPI: 96
  m_DynamicPixelsPerUnit: 4
--- !u!223 &423507115
Canvas:
  m_ObjectHideFlags: 0
  m_PrefabParentObject: {fileID: 22380436, guid: cb6e955ed2fa8094eaf245a9707e581a,
    type: 2}
  m_PrefabInternal: {fileID: 0}
  m_GameObject: {fileID: 423507112}
  m_Enabled: 1
  serializedVersion: 3
  m_RenderMode: 2
  m_Camera: {fileID: 0}
  m_PlaneDistance: 100
  m_PixelPerfect: 0
  m_ReceivesEvents: 1
  m_OverrideSorting: 0
  m_OverridePixelPerfect: 0
  m_SortingBucketNormalizedSize: 0
  m_AdditionalShaderChannelsFlag: 25
  m_SortingLayerID: 0
  m_SortingOrder: 0
  m_TargetDisplay: 0
--- !u!1 &436362672
GameObject:
  m_ObjectHideFlags: 0
  m_PrefabParentObject: {fileID: 100000, guid: 5925e5b92c4262e4eb73101058b15799, type: 3}
  m_PrefabInternal: {fileID: 0}
  serializedVersion: 5
  m_Component:
  - component: {fileID: 184923207}
  - component: {fileID: 436362674}
  - component: {fileID: 436362673}
  - component: {fileID: 436362675}
  m_Layer: 0
  m_Name: MenuBg
  m_TagString: Untagged
  m_Icon: {fileID: 0}
  m_NavMeshLayer: 0
  m_StaticEditorFlags: 0
  m_IsActive: 1
--- !u!23 &436362673
MeshRenderer:
  m_ObjectHideFlags: 0
  m_PrefabParentObject: {fileID: 2300000, guid: 5925e5b92c4262e4eb73101058b15799,
    type: 3}
  m_PrefabInternal: {fileID: 0}
  m_GameObject: {fileID: 436362672}
  m_Enabled: 1
  m_CastShadows: 0
  m_ReceiveShadows: 0
  m_MotionVectors: 1
  m_LightProbeUsage: 0
  m_ReflectionProbeUsage: 0
  m_Materials:
  - {fileID: 2100000, guid: 6f65c96498c277e429931be96cf3682c, type: 2}
  m_StaticBatchInfo:
    firstSubMesh: 0
    subMeshCount: 0
  m_StaticBatchRoot: {fileID: 0}
  m_ProbeAnchor: {fileID: 0}
  m_LightProbeVolumeOverride: {fileID: 0}
  m_ScaleInLightmap: 1
  m_PreserveUVs: 0
  m_IgnoreNormalsForChartDetection: 0
  m_ImportantGI: 0
  m_SelectedEditorRenderState: 3
  m_MinimumChartSize: 4
  m_AutoUVMaxDistance: 0.5
  m_AutoUVMaxAngle: 89
  m_LightmapParameters: {fileID: 0}
  m_SortingLayerID: 0
  m_SortingLayer: 0
  m_SortingOrder: 0
--- !u!33 &436362674
MeshFilter:
  m_ObjectHideFlags: 0
  m_PrefabParentObject: {fileID: 3300000, guid: 5925e5b92c4262e4eb73101058b15799,
    type: 3}
  m_PrefabInternal: {fileID: 0}
  m_GameObject: {fileID: 436362672}
  m_Mesh: {fileID: 4300000, guid: 5925e5b92c4262e4eb73101058b15799, type: 3}
--- !u!64 &436362675
MeshCollider:
  m_ObjectHideFlags: 0
  m_PrefabParentObject: {fileID: 0}
  m_PrefabInternal: {fileID: 0}
  m_GameObject: {fileID: 436362672}
  m_Material: {fileID: 0}
  m_IsTrigger: 0
  m_Enabled: 1
  serializedVersion: 2
  m_Convex: 0
  m_InflateMesh: 0
  m_SkinWidth: 0.01
  m_Mesh: {fileID: 4300000, guid: 5925e5b92c4262e4eb73101058b15799, type: 3}
--- !u!224 &453955609
RectTransform:
  m_ObjectHideFlags: 0
  m_PrefabParentObject: {fileID: 22422862, guid: 863a0315eb7aa5349ba3dd88bfdbc120,
    type: 2}
  m_PrefabInternal: {fileID: 0}
  m_GameObject: {fileID: 1303343901}
  m_LocalRotation: {x: -0.000000029802322, y: 0, z: 0, w: 1}
  m_LocalPosition: {x: 0, y: 0, z: 6}
  m_LocalScale: {x: 0.075, y: 0.075, z: 0.075}
  m_Children:
  - {fileID: 1739449733}
  m_Father: {fileID: 855431570}
  m_RootOrder: 1
  m_LocalEulerAnglesHint: {x: 0, y: 0, z: 0}
  m_AnchorMin: {x: 0, y: 0}
  m_AnchorMax: {x: 0, y: 0}
  m_AnchoredPosition: {x: 0, y: 0.6}
  m_SizeDelta: {x: 50, y: 20}
  m_Pivot: {x: 0.5, y: 0.5}
--- !u!114 &453955610
MonoBehaviour:
  m_ObjectHideFlags: 0
  m_PrefabParentObject: {fileID: 11457302, guid: 863a0315eb7aa5349ba3dd88bfdbc120,
    type: 2}
  m_PrefabInternal: {fileID: 0}
  m_GameObject: {fileID: 1303343901}
  m_Enabled: 1
  m_EditorHideFlags: 0
  m_Script: {fileID: 11500000, guid: 3138a0d76dfdea846a0a250e0c262f75, type: 3}
  m_Name: 
  m_EditorClassIdentifier: 
  m_Duration: 1
  m_Audio: {fileID: 1303343908}
  m_OnOverClip: {fileID: 8300000, guid: 2bd66143af0efeb4e884e4273d2ed956, type: 3}
  m_OnFilledClip: {fileID: 8300000, guid: 9f9d2c4dc4b50704bbf83a0e84e35936, type: 3}
  m_Slider: {fileID: 1739449734}
  m_InteractiveItem: {fileID: 1303343904}
  m_VRInput: {fileID: 1806677645}
  m_BarCanvas: {fileID: 1303343901}
  m_Renderer: {fileID: 0}
  m_SelectionRadial: {fileID: 0}
  m_UIFader: {fileID: 855431571}
  m_Collider: {fileID: 1303343905}
  m_DisableOnBarFill: 0
  m_DisappearOnBarFill: 0
--- !u!1 &513837551
GameObject:
  m_ObjectHideFlags: 0
  m_PrefabParentObject: {fileID: 192172, guid: 863a0315eb7aa5349ba3dd88bfdbc120, type: 2}
  m_PrefabInternal: {fileID: 0}
  serializedVersion: 5
  m_Component:
  - component: {fileID: 513837552}
  - component: {fileID: 513837554}
  - component: {fileID: 513837553}
  m_Layer: 5
  m_Name: Text
  m_TagString: Untagged
  m_Icon: {fileID: 0}
  m_NavMeshLayer: 0
  m_StaticEditorFlags: 0
  m_IsActive: 1
--- !u!224 &513837552
RectTransform:
  m_ObjectHideFlags: 0
  m_PrefabParentObject: {fileID: 22499990, guid: 863a0315eb7aa5349ba3dd88bfdbc120,
    type: 2}
  m_PrefabInternal: {fileID: 0}
  m_GameObject: {fileID: 513837551}
  m_LocalRotation: {x: 0, y: 0, z: 0, w: 1}
  m_LocalPosition: {x: 0, y: 0, z: 0}
  m_LocalScale: {x: 1, y: 1, z: 1}
  m_Children: []
  m_Father: {fileID: 1812059125}
  m_RootOrder: 2
  m_LocalEulerAnglesHint: {x: 0, y: 0, z: 0}
  m_AnchorMin: {x: 0, y: 0}
  m_AnchorMax: {x: 1, y: 1}
  m_AnchoredPosition: {x: 0, y: 0}
  m_SizeDelta: {x: 0, y: 0}
  m_Pivot: {x: 0.5, y: 0.5}
--- !u!114 &513837553
MonoBehaviour:
  m_ObjectHideFlags: 0
  m_PrefabParentObject: {fileID: 11463088, guid: 863a0315eb7aa5349ba3dd88bfdbc120,
    type: 2}
  m_PrefabInternal: {fileID: 0}
  m_GameObject: {fileID: 513837551}
  m_Enabled: 1
  m_EditorHideFlags: 0
  m_Script: {fileID: 708705254, guid: f5f67c52d1564df4a8936ccd202a3bd8, type: 3}
  m_Name: 
  m_EditorClassIdentifier: 
  m_Material: {fileID: 0}
  m_Color: {r: 1, g: 1, b: 1, a: 1}
  m_RaycastTarget: 1
  m_OnCullStateChanged:
    m_PersistentCalls:
      m_Calls: []
    m_TypeName: UnityEngine.UI.MaskableGraphic+CullStateChangedEvent, UnityEngine.UI,
      Version=1.0.0.0, Culture=neutral, PublicKeyToken=null
  m_FontData:
    m_Font: {fileID: 12800000, guid: 1ab4740f034baf2488e984a82e190cb3, type: 3}
    m_FontSize: 4
    m_FontStyle: 0
    m_BestFit: 0
    m_MinSize: 1
    m_MaxSize: 4
    m_Alignment: 4
    m_AlignByGeometry: 0
    m_RichText: 1
    m_HorizontalOverflow: 1
    m_VerticalOverflow: 1
    m_LineSpacing: 1
  m_Text: Start now!
--- !u!222 &513837554
CanvasRenderer:
  m_ObjectHideFlags: 0
  m_PrefabParentObject: {fileID: 22258842, guid: 863a0315eb7aa5349ba3dd88bfdbc120,
    type: 2}
  m_PrefabInternal: {fileID: 0}
  m_GameObject: {fileID: 513837551}
--- !u!1 &563393746
GameObject:
  m_ObjectHideFlags: 0
  m_PrefabParentObject: {fileID: 193722, guid: cb6e955ed2fa8094eaf245a9707e581a, type: 2}
  m_PrefabInternal: {fileID: 0}
  serializedVersion: 5
  m_Component:
  - component: {fileID: 563393747}
  - component: {fileID: 563393750}
  - component: {fileID: 563393749}
  - component: {fileID: 563393748}
  m_Layer: 5
  m_Name: BackInstructions
  m_TagString: Untagged
  m_Icon: {fileID: 0}
  m_NavMeshLayer: 0
  m_StaticEditorFlags: 0
  m_IsActive: 1
--- !u!224 &563393747
RectTransform:
  m_ObjectHideFlags: 0
  m_PrefabParentObject: {fileID: 22402564, guid: cb6e955ed2fa8094eaf245a9707e581a,
    type: 2}
  m_PrefabInternal: {fileID: 0}
  m_GameObject: {fileID: 563393746}
  m_LocalRotation: {x: 0, y: 0, z: 0, w: 1}
  m_LocalPosition: {x: 0, y: 0, z: 8.27}
  m_LocalScale: {x: 0.04451718, y: 0.044517178, z: 0.044517178}
  m_Children:
  - {fileID: 1672152657}
  - {fileID: 756518351}
  m_Father: {fileID: 1257493204}
  m_RootOrder: 0
  m_LocalEulerAnglesHint: {x: 0, y: 0, z: 0}
  m_AnchorMin: {x: 0, y: 0}
  m_AnchorMax: {x: 0, y: 0}
  m_AnchoredPosition: {x: 0, y: 1.7}
  m_SizeDelta: {x: 250, y: 150}
  m_Pivot: {x: 0.5, y: 0.5}
--- !u!225 &563393748
CanvasGroup:
  m_ObjectHideFlags: 0
  m_PrefabParentObject: {fileID: 0}
  m_PrefabInternal: {fileID: 0}
  m_GameObject: {fileID: 563393746}
  m_Enabled: 1
  m_Alpha: 0
  m_Interactable: 1
  m_BlocksRaycasts: 1
  m_IgnoreParentGroups: 0
--- !u!114 &563393749
MonoBehaviour:
  m_ObjectHideFlags: 0
  m_PrefabParentObject: {fileID: 11419582, guid: cb6e955ed2fa8094eaf245a9707e581a,
    type: 2}
  m_PrefabInternal: {fileID: 0}
  m_GameObject: {fileID: 563393746}
  m_Enabled: 1
  m_EditorHideFlags: 0
  m_Script: {fileID: 1980459831, guid: f5f67c52d1564df4a8936ccd202a3bd8, type: 3}
  m_Name: 
  m_EditorClassIdentifier: 
  m_UiScaleMode: 0
  m_ReferencePixelsPerUnit: 1
  m_ScaleFactor: 1
  m_ReferenceResolution: {x: 800, y: 600}
  m_ScreenMatchMode: 0
  m_MatchWidthOrHeight: 0
  m_PhysicalUnit: 3
  m_FallbackScreenDPI: 96
  m_DefaultSpriteDPI: 96
  m_DynamicPixelsPerUnit: 4
--- !u!223 &563393750
Canvas:
  m_ObjectHideFlags: 0
  m_PrefabParentObject: {fileID: 22380436, guid: cb6e955ed2fa8094eaf245a9707e581a,
    type: 2}
  m_PrefabInternal: {fileID: 0}
  m_GameObject: {fileID: 563393746}
  m_Enabled: 1
  serializedVersion: 3
  m_RenderMode: 2
  m_Camera: {fileID: 0}
  m_PlaneDistance: 100
  m_PixelPerfect: 0
  m_ReceivesEvents: 1
  m_OverrideSorting: 0
  m_OverridePixelPerfect: 0
  m_SortingBucketNormalizedSize: 0
  m_AdditionalShaderChannelsFlag: 25
  m_SortingLayerID: 0
  m_SortingOrder: 0
  m_TargetDisplay: 0
--- !u!1 &606295501
GameObject:
  m_ObjectHideFlags: 0
  m_PrefabParentObject: {fileID: 194094, guid: 50ce765ecb72518498e9608f19020f8a, type: 2}
  m_PrefabInternal: {fileID: 0}
  serializedVersion: 5
  m_Component:
  - component: {fileID: 143249927}
  - component: {fileID: 606295503}
  - component: {fileID: 606295502}
  m_Layer: 5
  m_Name: GUIArrows
  m_TagString: Untagged
  m_Icon: {fileID: 0}
  m_NavMeshLayer: 0
  m_StaticEditorFlags: 0
  m_IsActive: 1
--- !u!114 &606295502
MonoBehaviour:
  m_ObjectHideFlags: 0
  m_PrefabParentObject: {fileID: 11404896, guid: 50ce765ecb72518498e9608f19020f8a,
    type: 2}
  m_PrefabInternal: {fileID: 0}
  m_GameObject: {fileID: 606295501}
  m_Enabled: 1
  m_EditorHideFlags: 0
  m_Script: {fileID: 11500000, guid: 3af1173807e0ce240ad82678c7720073, type: 3}
  m_Name: 
  m_EditorClassIdentifier: 
  m_FadeDuration: 0.5
  m_ShowAngle: 60
  m_DesiredDirection: {fileID: 0}
  m_Camera: {fileID: 1806677651}
  m_ArrowRenderers:
  - {fileID: 841373305}
  - {fileID: 824249378}
  - {fileID: 1813455386}
--- !u!95 &606295503
Animator:
  serializedVersion: 3
  m_ObjectHideFlags: 0
  m_PrefabParentObject: {fileID: 9512342, guid: 50ce765ecb72518498e9608f19020f8a,
    type: 2}
  m_PrefabInternal: {fileID: 0}
  m_GameObject: {fileID: 606295501}
  m_Enabled: 1
  m_Avatar: {fileID: 9000000, guid: eb9a01d178a85eb41b99822b6acad79b, type: 3}
  m_Controller: {fileID: 9100000, guid: ea116866590072645b14314783ff09f1, type: 2}
  m_CullingMode: 0
  m_UpdateMode: 0
  m_ApplyRootMotion: 0
  m_LinearVelocityBlending: 0
  m_WarningMessage: 
  m_HasTransformHierarchy: 1
  m_AllowConstantClipSamplingOptimization: 1
--- !u!1 &653153513
GameObject:
  m_ObjectHideFlags: 0
  m_PrefabParentObject: {fileID: 192172, guid: 863a0315eb7aa5349ba3dd88bfdbc120, type: 2}
  m_PrefabInternal: {fileID: 0}
  serializedVersion: 5
  m_Component:
  - component: {fileID: 653153514}
  - component: {fileID: 653153516}
  - component: {fileID: 653153515}
  m_Layer: 5
  m_Name: Text
  m_TagString: Untagged
  m_Icon: {fileID: 0}
  m_NavMeshLayer: 0
  m_StaticEditorFlags: 0
  m_IsActive: 1
--- !u!224 &653153514
RectTransform:
  m_ObjectHideFlags: 0
  m_PrefabParentObject: {fileID: 22499990, guid: 863a0315eb7aa5349ba3dd88bfdbc120,
    type: 2}
  m_PrefabInternal: {fileID: 0}
  m_GameObject: {fileID: 653153513}
  m_LocalRotation: {x: 0, y: 0, z: 0, w: 1}
  m_LocalPosition: {x: 0, y: 0, z: 0}
  m_LocalScale: {x: 1, y: 1, z: 1}
  m_Children: []
  m_Father: {fileID: 1739449733}
  m_RootOrder: 2
  m_LocalEulerAnglesHint: {x: 0, y: 0, z: 0}
  m_AnchorMin: {x: 0, y: 0}
  m_AnchorMax: {x: 1, y: 1}
  m_AnchoredPosition: {x: 0, y: 0}
  m_SizeDelta: {x: 0, y: 0}
  m_Pivot: {x: 0.5, y: 0.5}
--- !u!114 &653153515
MonoBehaviour:
  m_ObjectHideFlags: 0
  m_PrefabParentObject: {fileID: 11463088, guid: 863a0315eb7aa5349ba3dd88bfdbc120,
    type: 2}
  m_PrefabInternal: {fileID: 0}
  m_GameObject: {fileID: 653153513}
  m_Enabled: 1
  m_EditorHideFlags: 0
  m_Script: {fileID: 708705254, guid: f5f67c52d1564df4a8936ccd202a3bd8, type: 3}
  m_Name: 
  m_EditorClassIdentifier: 
  m_Material: {fileID: 0}
  m_Color: {r: 1, g: 1, b: 1, a: 1}
  m_RaycastTarget: 1
  m_OnCullStateChanged:
    m_PersistentCalls:
      m_Calls: []
    m_TypeName: UnityEngine.UI.MaskableGraphic+CullStateChangedEvent, UnityEngine.UI,
      Version=1.0.0.0, Culture=neutral, PublicKeyToken=null
  m_FontData:
    m_Font: {fileID: 12800000, guid: 1ab4740f034baf2488e984a82e190cb3, type: 3}
    m_FontSize: 4
    m_FontStyle: 0
    m_BestFit: 0
    m_MinSize: 1
    m_MaxSize: 4
    m_Alignment: 4
    m_AlignByGeometry: 0
    m_RichText: 1
    m_HorizontalOverflow: 1
    m_VerticalOverflow: 1
    m_LineSpacing: 1
  m_Text: I'm ready
--- !u!222 &653153516
CanvasRenderer:
  m_ObjectHideFlags: 0
  m_PrefabParentObject: {fileID: 22258842, guid: 863a0315eb7aa5349ba3dd88bfdbc120,
    type: 2}
  m_PrefabInternal: {fileID: 0}
  m_GameObject: {fileID: 653153513}
--- !u!114 &673076685
MonoBehaviour:
  m_ObjectHideFlags: 0
  m_PrefabParentObject: {fileID: 11425090, guid: 863a0315eb7aa5349ba3dd88bfdbc120,
    type: 2}
  m_PrefabInternal: {fileID: 0}
  m_GameObject: {fileID: 1987363620}
  m_Enabled: 1
  m_EditorHideFlags: 0
  m_Script: {fileID: -765806418, guid: f5f67c52d1564df4a8936ccd202a3bd8, type: 3}
  m_Name: 
  m_EditorClassIdentifier: 
  m_Material: {fileID: 0}
  m_Color: {r: 0.13333334, g: 0.17254902, b: 0.21568628, a: 0.78431374}
  m_RaycastTarget: 1
  m_OnCullStateChanged:
    m_PersistentCalls:
      m_Calls: []
    m_TypeName: UnityEngine.UI.MaskableGraphic+CullStateChangedEvent, UnityEngine.UI,
      Version=1.0.0.0, Culture=neutral, PublicKeyToken=null
  m_Sprite: {fileID: 10907, guid: 0000000000000000f000000000000000, type: 0}
  m_Type: 1
  m_PreserveAspect: 0
  m_FillCenter: 1
  m_FillMethod: 4
  m_FillAmount: 1
  m_FillClockwise: 1
  m_FillOrigin: 0
--- !u!1 &712889872
GameObject:
  m_ObjectHideFlags: 0
  m_PrefabParentObject: {fileID: 0}
  m_PrefabInternal: {fileID: 0}
  serializedVersion: 5
  m_Component:
  - component: {fileID: 712889876}
  - component: {fileID: 712889875}
  - component: {fileID: 712889874}
  - component: {fileID: 712889873}
  m_Layer: 0
  m_Name: EventSystem
  m_TagString: Untagged
  m_Icon: {fileID: 0}
  m_NavMeshLayer: 0
  m_StaticEditorFlags: 0
  m_IsActive: 1
--- !u!114 &712889873
MonoBehaviour:
  m_ObjectHideFlags: 0
  m_PrefabParentObject: {fileID: 0}
  m_PrefabInternal: {fileID: 0}
  m_GameObject: {fileID: 712889872}
  m_Enabled: 1
  m_EditorHideFlags: 0
  m_Script: {fileID: 1997211142, guid: f5f67c52d1564df4a8936ccd202a3bd8, type: 3}
  m_Name: 
  m_EditorClassIdentifier: 
  m_ForceModuleActive: 0
--- !u!114 &712889874
MonoBehaviour:
  m_ObjectHideFlags: 0
  m_PrefabParentObject: {fileID: 0}
  m_PrefabInternal: {fileID: 0}
  m_GameObject: {fileID: 712889872}
  m_Enabled: 1
  m_EditorHideFlags: 0
  m_Script: {fileID: 1077351063, guid: f5f67c52d1564df4a8936ccd202a3bd8, type: 3}
  m_Name: 
  m_EditorClassIdentifier: 
  m_HorizontalAxis: Horizontal
  m_VerticalAxis: Vertical
  m_SubmitButton: Submit
  m_CancelButton: Cancel
  m_InputActionsPerSecond: 10
  m_RepeatDelay: 0.5
  m_ForceModuleActive: 0
--- !u!114 &712889875
MonoBehaviour:
  m_ObjectHideFlags: 0
  m_PrefabParentObject: {fileID: 0}
  m_PrefabInternal: {fileID: 0}
  m_GameObject: {fileID: 712889872}
  m_Enabled: 1
  m_EditorHideFlags: 0
  m_Script: {fileID: -619905303, guid: f5f67c52d1564df4a8936ccd202a3bd8, type: 3}
  m_Name: 
  m_EditorClassIdentifier: 
  m_FirstSelected: {fileID: 0}
  m_sendNavigationEvents: 1
  m_DragThreshold: 5
--- !u!4 &712889876
Transform:
  m_ObjectHideFlags: 0
  m_PrefabParentObject: {fileID: 0}
  m_PrefabInternal: {fileID: 0}
  m_GameObject: {fileID: 712889872}
  m_LocalRotation: {x: 0, y: 0, z: 0, w: 1}
  m_LocalPosition: {x: 0, y: 0, z: 0}
  m_LocalScale: {x: 1, y: 1, z: 1}
  m_Children: []
  m_Father: {fileID: 1182027539}
  m_RootOrder: 0
  m_LocalEulerAnglesHint: {x: 0, y: 0, z: 0}
--- !u!1 &722301496
GameObject:
  m_ObjectHideFlags: 0
  m_PrefabParentObject: {fileID: 0}
  m_PrefabInternal: {fileID: 0}
  serializedVersion: 5
  m_Component:
  - component: {fileID: 722301497}
  - component: {fileID: 722301498}
  m_Layer: 0
  m_Name: VRManager
  m_TagString: Untagged
  m_Icon: {fileID: 0}
  m_NavMeshLayer: 0
  m_StaticEditorFlags: 0
  m_IsActive: 1
--- !u!4 &722301497
Transform:
  m_ObjectHideFlags: 0
  m_PrefabParentObject: {fileID: 0}
  m_PrefabInternal: {fileID: 0}
  m_GameObject: {fileID: 722301496}
  m_LocalRotation: {x: 0, y: 0, z: 0, w: 1}
  m_LocalPosition: {x: 0, y: 0, z: 0}
  m_LocalScale: {x: 1, y: 1, z: 1}
  m_Children: []
  m_Father: {fileID: 0}
  m_RootOrder: 3
  m_LocalEulerAnglesHint: {x: 0, y: 0, z: 0}
--- !u!114 &722301498
MonoBehaviour:
  m_ObjectHideFlags: 0
  m_PrefabParentObject: {fileID: 0}
  m_PrefabInternal: {fileID: 0}
  m_GameObject: {fileID: 722301496}
  m_Enabled: 1
  m_EditorHideFlags: 0
  m_Script: {fileID: 11500000, guid: 3b8d73c6c44d47c4e8147ec37f2ce2e6, type: 3}
  m_Name: 
  m_EditorClassIdentifier: 
  m_RenderScale: 1
--- !u!1 &756518350
GameObject:
  m_ObjectHideFlags: 0
  m_PrefabParentObject: {fileID: 123798, guid: cb6e955ed2fa8094eaf245a9707e581a, type: 2}
  m_PrefabInternal: {fileID: 0}
  serializedVersion: 5
  m_Component:
  - component: {fileID: 756518351}
  - component: {fileID: 756518353}
  - component: {fileID: 756518352}
  m_Layer: 5
  m_Name: BodyText
  m_TagString: Untagged
  m_Icon: {fileID: 0}
  m_NavMeshLayer: 0
  m_StaticEditorFlags: 0
  m_IsActive: 1
--- !u!224 &756518351
RectTransform:
  m_ObjectHideFlags: 0
  m_PrefabParentObject: {fileID: 22492946, guid: cb6e955ed2fa8094eaf245a9707e581a,
    type: 2}
  m_PrefabInternal: {fileID: 0}
  m_GameObject: {fileID: 756518350}
  m_LocalRotation: {x: 0, y: 0, z: 0, w: 1}
  m_LocalPosition: {x: 0, y: 0, z: 0}
  m_LocalScale: {x: 1, y: 1, z: 1}
  m_Children: []
  m_Father: {fileID: 563393747}
  m_RootOrder: 1
  m_LocalEulerAnglesHint: {x: 0, y: 0, z: 0}
  m_AnchorMin: {x: 0.5, y: 0.5}
  m_AnchorMax: {x: 0.5, y: 0.5}
  m_AnchoredPosition: {x: 0, y: 9.95}
  m_SizeDelta: {x: 160, y: 30}
  m_Pivot: {x: 0.5, y: 1}
--- !u!114 &756518352
MonoBehaviour:
  m_ObjectHideFlags: 0
  m_PrefabParentObject: {fileID: 11459540, guid: cb6e955ed2fa8094eaf245a9707e581a,
    type: 2}
  m_PrefabInternal: {fileID: 0}
  m_GameObject: {fileID: 756518350}
  m_Enabled: 1
  m_EditorHideFlags: 0
  m_Script: {fileID: 708705254, guid: f5f67c52d1564df4a8936ccd202a3bd8, type: 3}
  m_Name: 
  m_EditorClassIdentifier: 
  m_Material: {fileID: 0}
  m_Color: {r: 0.13333334, g: 0.17254902, b: 0.21568628, a: 1}
  m_RaycastTarget: 1
  m_OnCullStateChanged:
    m_PersistentCalls:
      m_Calls: []
    m_TypeName: UnityEngine.UI.MaskableGraphic+CullStateChangedEvent, UnityEngine.UI,
      Version=1.0.0.0, Culture=neutral, PublicKeyToken=null
  m_FontData:
    m_Font: {fileID: 12800000, guid: 8c740fb154a0e534aa1c489395c538fb, type: 3}
    m_FontSize: 10
    m_FontStyle: 0
    m_BestFit: 0
    m_MinSize: 10
    m_MaxSize: 40
    m_Alignment: 1
    m_AlignByGeometry: 0
    m_RichText: 1
    m_HorizontalOverflow: 1
    m_VerticalOverflow: 1
    m_LineSpacing: 1
  m_Text: "<b>PRESS BACK*</b> TO GO BACK\nLet\u2019s practice!"
--- !u!222 &756518353
CanvasRenderer:
  m_ObjectHideFlags: 0
  m_PrefabParentObject: {fileID: 22296662, guid: cb6e955ed2fa8094eaf245a9707e581a,
    type: 2}
  m_PrefabInternal: {fileID: 0}
  m_GameObject: {fileID: 756518350}
--- !u!1 &788846012
GameObject:
  m_ObjectHideFlags: 0
  m_PrefabParentObject: {fileID: 103972, guid: 863a0315eb7aa5349ba3dd88bfdbc120, type: 2}
  m_PrefabInternal: {fileID: 0}
  serializedVersion: 5
  m_Component:
  - component: {fileID: 1487780014}
  - component: {fileID: 788846018}
  - component: {fileID: 788846017}
  - component: {fileID: 788846014}
  - component: {fileID: 788846016}
  - component: {fileID: 1138161144}
  - component: {fileID: 788846015}
  - component: {fileID: 788846013}
  - component: {fileID: 788846019}
  m_Layer: 5
  m_Name: InstructionsSelectionSlider
  m_TagString: Untagged
  m_Icon: {fileID: 0}
  m_NavMeshLayer: 0
  m_StaticEditorFlags: 0
  m_IsActive: 1
--- !u!114 &788846013
MonoBehaviour:
  m_ObjectHideFlags: 0
  m_PrefabParentObject: {fileID: 11411124, guid: 863a0315eb7aa5349ba3dd88bfdbc120,
    type: 2}
  m_PrefabInternal: {fileID: 0}
  m_GameObject: {fileID: 788846012}
  m_Enabled: 1
  m_EditorHideFlags: 0
  m_Script: {fileID: 11500000, guid: 5c2ebf5953b4e0b4685bd8d238e8caa9, type: 3}
  m_Name: 
  m_EditorClassIdentifier: 
  m_Tint: {r: 0.48235294, g: 0.8, b: 0.8, a: 0}
  m_TintPercent: 0.3
  m_ImagesToTint:
  - {fileID: 673076685}
  m_InteractiveItem: {fileID: 788846014}
--- !u!114 &788846014
MonoBehaviour:
  m_ObjectHideFlags: 0
  m_PrefabParentObject: {fileID: 11471302, guid: 863a0315eb7aa5349ba3dd88bfdbc120,
    type: 2}
  m_PrefabInternal: {fileID: 0}
  m_GameObject: {fileID: 788846012}
  m_Enabled: 1
  m_EditorHideFlags: 0
  m_Script: {fileID: 11500000, guid: 7fea6f8eea666334aaf9869ad8f7bcda, type: 3}
  m_Name: 
  m_EditorClassIdentifier: 
--- !u!225 &788846015
CanvasGroup:
  m_ObjectHideFlags: 0
  m_PrefabParentObject: {fileID: 22520670, guid: 863a0315eb7aa5349ba3dd88bfdbc120,
    type: 2}
  m_PrefabInternal: {fileID: 0}
  m_GameObject: {fileID: 788846012}
  m_Enabled: 1
  m_Alpha: 1
  m_Interactable: 1
  m_BlocksRaycasts: 1
  m_IgnoreParentGroups: 0
--- !u!65 &788846016
BoxCollider:
  m_ObjectHideFlags: 0
  m_PrefabParentObject: {fileID: 6557976, guid: 863a0315eb7aa5349ba3dd88bfdbc120,
    type: 2}
  m_PrefabInternal: {fileID: 0}
  m_GameObject: {fileID: 788846012}
  m_Material: {fileID: 0}
  m_IsTrigger: 0
  m_Enabled: 1
  serializedVersion: 2
  m_Size: {x: 30, y: 6, z: 0.01}
  m_Center: {x: 0, y: 0, z: 0}
--- !u!114 &788846017
MonoBehaviour:
  m_ObjectHideFlags: 0
  m_PrefabParentObject: {fileID: 11496222, guid: 863a0315eb7aa5349ba3dd88bfdbc120,
    type: 2}
  m_PrefabInternal: {fileID: 0}
  m_GameObject: {fileID: 788846012}
  m_Enabled: 1
  m_EditorHideFlags: 0
  m_Script: {fileID: 1980459831, guid: f5f67c52d1564df4a8936ccd202a3bd8, type: 3}
  m_Name: 
  m_EditorClassIdentifier: 
  m_UiScaleMode: 0
  m_ReferencePixelsPerUnit: 1
  m_ScaleFactor: 1
  m_ReferenceResolution: {x: 800, y: 600}
  m_ScreenMatchMode: 0
  m_MatchWidthOrHeight: 0
  m_PhysicalUnit: 3
  m_FallbackScreenDPI: 96
  m_DefaultSpriteDPI: 96
  m_DynamicPixelsPerUnit: 7
--- !u!223 &788846018
Canvas:
  m_ObjectHideFlags: 0
  m_PrefabParentObject: {fileID: 22326030, guid: 863a0315eb7aa5349ba3dd88bfdbc120,
    type: 2}
  m_PrefabInternal: {fileID: 0}
  m_GameObject: {fileID: 788846012}
  m_Enabled: 1
  serializedVersion: 3
  m_RenderMode: 2
  m_Camera: {fileID: 0}
  m_PlaneDistance: 100
  m_PixelPerfect: 0
  m_ReceivesEvents: 1
  m_OverrideSorting: 0
  m_OverridePixelPerfect: 0
  m_SortingBucketNormalizedSize: 0
  m_AdditionalShaderChannelsFlag: 25
  m_SortingLayerID: 0
  m_SortingOrder: 0
  m_TargetDisplay: 0
--- !u!82 &788846019
AudioSource:
  m_ObjectHideFlags: 0
  m_PrefabParentObject: {fileID: 0}
  m_PrefabInternal: {fileID: 0}
  m_GameObject: {fileID: 788846012}
  m_Enabled: 1
  serializedVersion: 4
  OutputAudioMixerGroup: {fileID: 0}
  m_audioClip: {fileID: 0}
  m_PlayOnAwake: 0
  m_Volume: 1
  m_Pitch: 1
  Loop: 0
  Mute: 0
  Spatialize: 0
  SpatializePostEffects: 0
  Priority: 128
  DopplerLevel: 1
  MinDistance: 1
  MaxDistance: 500
  Pan2D: 0
  rolloffMode: 0
  BypassEffects: 0
  BypassListenerEffects: 0
  BypassReverbZones: 0
  rolloffCustomCurve:
    serializedVersion: 2
    m_Curve:
    - serializedVersion: 2
      time: 0
      value: 1
      inSlope: 0
      outSlope: 0
      tangentMode: 0
    - serializedVersion: 2
      time: 1
      value: 0
      inSlope: 0
      outSlope: 0
      tangentMode: 0
    m_PreInfinity: 2
    m_PostInfinity: 2
    m_RotationOrder: 4
  panLevelCustomCurve:
    serializedVersion: 2
    m_Curve:
    - serializedVersion: 2
      time: 0
      value: 0
      inSlope: 0
      outSlope: 0
      tangentMode: 0
    m_PreInfinity: 2
    m_PostInfinity: 2
    m_RotationOrder: 0
  spreadCustomCurve:
    serializedVersion: 2
    m_Curve:
    - serializedVersion: 2
      time: 0
      value: 0
      inSlope: 0
      outSlope: 0
      tangentMode: 0
    m_PreInfinity: 2
    m_PostInfinity: 2
    m_RotationOrder: 4
  reverbZoneMixCustomCurve:
    serializedVersion: 2
    m_Curve:
    - serializedVersion: 2
      time: 0
      value: 1
      inSlope: 0
      outSlope: 0
      tangentMode: 0
    m_PreInfinity: 2
    m_PostInfinity: 2
    m_RotationOrder: 0
--- !u!1 &824249376
GameObject:
  m_ObjectHideFlags: 0
  m_PrefabParentObject: {fileID: 194064, guid: 50ce765ecb72518498e9608f19020f8a, type: 2}
  m_PrefabInternal: {fileID: 0}
  serializedVersion: 5
  m_Component:
  - component: {fileID: 824249377}
  - component: {fileID: 824249379}
  - component: {fileID: 824249378}
  m_Layer: 5
  m_Name: GUIArrowsRear
  m_TagString: Untagged
  m_Icon: {fileID: 0}
  m_NavMeshLayer: 0
  m_StaticEditorFlags: 0
  m_IsActive: 0
--- !u!4 &824249377
Transform:
  m_ObjectHideFlags: 0
  m_PrefabParentObject: {fileID: 486056, guid: 50ce765ecb72518498e9608f19020f8a, type: 2}
  m_PrefabInternal: {fileID: 0}
  m_GameObject: {fileID: 824249376}
  m_LocalRotation: {x: 0, y: 0, z: 0, w: 1}
  m_LocalPosition: {x: 0, y: 0, z: 0}
  m_LocalScale: {x: 1, y: 1, z: 1}
  m_Children: []
  m_Father: {fileID: 143249927}
  m_RootOrder: 1
  m_LocalEulerAnglesHint: {x: 0, y: 0, z: 0}
--- !u!23 &824249378
MeshRenderer:
  m_ObjectHideFlags: 0
  m_PrefabParentObject: {fileID: 2376312, guid: 50ce765ecb72518498e9608f19020f8a,
    type: 2}
  m_PrefabInternal: {fileID: 0}
  m_GameObject: {fileID: 824249376}
  m_Enabled: 0
  m_CastShadows: 1
  m_ReceiveShadows: 1
  m_MotionVectors: 1
  m_LightProbeUsage: 1
  m_ReflectionProbeUsage: 1
  m_Materials:
  - {fileID: 2100000, guid: 6de59d8a92734f542add198e11a6280b, type: 2}
  m_StaticBatchInfo:
    firstSubMesh: 0
    subMeshCount: 0
  m_StaticBatchRoot: {fileID: 0}
  m_ProbeAnchor: {fileID: 0}
  m_LightProbeVolumeOverride: {fileID: 0}
  m_ScaleInLightmap: 1
  m_PreserveUVs: 0
  m_IgnoreNormalsForChartDetection: 0
  m_ImportantGI: 0
  m_SelectedEditorRenderState: 3
  m_MinimumChartSize: 4
  m_AutoUVMaxDistance: 0.5
  m_AutoUVMaxAngle: 89
  m_LightmapParameters: {fileID: 0}
  m_SortingLayerID: 0
  m_SortingLayer: 0
  m_SortingOrder: 0
--- !u!33 &824249379
MeshFilter:
  m_ObjectHideFlags: 0
  m_PrefabParentObject: {fileID: 3393430, guid: 50ce765ecb72518498e9608f19020f8a,
    type: 2}
  m_PrefabInternal: {fileID: 0}
  m_GameObject: {fileID: 824249376}
  m_Mesh: {fileID: 4300008, guid: eb9a01d178a85eb41b99822b6acad79b, type: 3}
--- !u!1 &841373303
GameObject:
  m_ObjectHideFlags: 0
  m_PrefabParentObject: {fileID: 125264, guid: 50ce765ecb72518498e9608f19020f8a, type: 2}
  m_PrefabInternal: {fileID: 0}
  serializedVersion: 5
  m_Component:
  - component: {fileID: 841373304}
  - component: {fileID: 841373306}
  - component: {fileID: 841373305}
  m_Layer: 5
  m_Name: GUIArrowsLeft
  m_TagString: Untagged
  m_Icon: {fileID: 0}
  m_NavMeshLayer: 0
  m_StaticEditorFlags: 0
  m_IsActive: 1
--- !u!4 &841373304
Transform:
  m_ObjectHideFlags: 0
  m_PrefabParentObject: {fileID: 427882, guid: 50ce765ecb72518498e9608f19020f8a, type: 2}
  m_PrefabInternal: {fileID: 0}
  m_GameObject: {fileID: 841373303}
  m_LocalRotation: {x: 0, y: 0, z: 0, w: 1}
  m_LocalPosition: {x: 0, y: 0, z: 0}
  m_LocalScale: {x: 1, y: 1, z: 1}
  m_Children: []
  m_Father: {fileID: 143249927}
  m_RootOrder: 0
  m_LocalEulerAnglesHint: {x: 0, y: 0, z: 0}
--- !u!23 &841373305
MeshRenderer:
  m_ObjectHideFlags: 0
  m_PrefabParentObject: {fileID: 2331968, guid: 50ce765ecb72518498e9608f19020f8a,
    type: 2}
  m_PrefabInternal: {fileID: 0}
  m_GameObject: {fileID: 841373303}
  m_Enabled: 1
  m_CastShadows: 1
  m_ReceiveShadows: 1
  m_MotionVectors: 1
  m_LightProbeUsage: 1
  m_ReflectionProbeUsage: 1
  m_Materials:
  - {fileID: 2100000, guid: 283e029957e4e39459110d36502c7bc4, type: 2}
  m_StaticBatchInfo:
    firstSubMesh: 0
    subMeshCount: 0
  m_StaticBatchRoot: {fileID: 0}
  m_ProbeAnchor: {fileID: 0}
  m_LightProbeVolumeOverride: {fileID: 0}
  m_ScaleInLightmap: 1
  m_PreserveUVs: 0
  m_IgnoreNormalsForChartDetection: 0
  m_ImportantGI: 0
  m_SelectedEditorRenderState: 3
  m_MinimumChartSize: 4
  m_AutoUVMaxDistance: 0.5
  m_AutoUVMaxAngle: 89
  m_LightmapParameters: {fileID: 0}
  m_SortingLayerID: 0
  m_SortingLayer: 0
  m_SortingOrder: 0
--- !u!33 &841373306
MeshFilter:
  m_ObjectHideFlags: 0
  m_PrefabParentObject: {fileID: 3357912, guid: 50ce765ecb72518498e9608f19020f8a,
    type: 2}
  m_PrefabInternal: {fileID: 0}
  m_GameObject: {fileID: 841373303}
  m_Mesh: {fileID: 4300004, guid: eb9a01d178a85eb41b99822b6acad79b, type: 3}
--- !u!1 &855431569
GameObject:
  m_ObjectHideFlags: 0
  m_PrefabParentObject: {fileID: 0}
  m_PrefabInternal: {fileID: 0}
  serializedVersion: 5
  m_Component:
  - component: {fileID: 855431570}
  - component: {fileID: 855431571}
  - component: {fileID: 855431572}
  m_Layer: 0
  m_Name: CompleteGUI
  m_TagString: Untagged
  m_Icon: {fileID: 0}
  m_NavMeshLayer: 0
  m_StaticEditorFlags: 0
  m_IsActive: 1
--- !u!4 &855431570
Transform:
  m_ObjectHideFlags: 0
  m_PrefabParentObject: {fileID: 0}
  m_PrefabInternal: {fileID: 0}
  m_GameObject: {fileID: 855431569}
  m_LocalRotation: {x: 0, y: 0, z: 0, w: 1}
  m_LocalPosition: {x: 0, y: 0, z: 0}
  m_LocalScale: {x: 1, y: 1, z: 1}
  m_Children:
  - {fileID: 423507110}
  - {fileID: 453955609}
  m_Father: {fileID: 1591880578}
  m_RootOrder: 2
  m_LocalEulerAnglesHint: {x: 0, y: 0, z: 0}
--- !u!114 &855431571
MonoBehaviour:
  m_ObjectHideFlags: 0
  m_PrefabParentObject: {fileID: 0}
  m_PrefabInternal: {fileID: 0}
  m_GameObject: {fileID: 855431569}
  m_Enabled: 1
  m_EditorHideFlags: 0
  m_Script: {fileID: 11500000, guid: 36ec501a8570e3f469a983e6ba4c11aa, type: 3}
  m_Name: 
  m_EditorClassIdentifier: 
  m_FadeSpeed: 1
  m_GroupsToFade:
  - {fileID: 423507113}
  - {fileID: 1303343903}
--- !u!114 &855431572
MonoBehaviour:
  m_ObjectHideFlags: 0
  m_PrefabParentObject: {fileID: 0}
  m_PrefabInternal: {fileID: 0}
  m_GameObject: {fileID: 855431569}
  m_Enabled: 1
  m_EditorHideFlags: 0
  m_Script: {fileID: 11500000, guid: 0461d544138945b468d516467d6bd6da, type: 3}
  m_Name: 
  m_EditorClassIdentifier: 
  m_TextComponent: {fileID: 1211322431}
  m_PlatformTextPairs:
  - m_Platform: 0
    m_Text: 'Now you know how to interact with things!

      Let''s try once more to be sure,

      then you''re on your own...'
  - m_Platform: 2
    m_Text: 'Now you know how to interact with things!

      Let''s try once more to be sure,

      then you''re on your own...




      (<b>HOLD CTRL</b> or the <b>LEFT

      MOUSE BUTTON</b> to select the button)'
  - m_Platform: 7
    m_Text: 'Now you know how to interact with things!

      Let''s try once more to be sure,

      then you''re on your own...'
  - m_Platform: 11
    m_Text: 'Now you know how to interact with things!

      Let''s try once more to be sure,

      then you''re on your own...'
--- !u!1 &867218951
GameObject:
  m_ObjectHideFlags: 0
  m_PrefabParentObject: {fileID: 146514, guid: 863a0315eb7aa5349ba3dd88bfdbc120, type: 2}
  m_PrefabInternal: {fileID: 0}
  serializedVersion: 5
  m_Component:
  - component: {fileID: 867218952}
  - component: {fileID: 867218953}
  - component: {fileID: 36352810}
  m_Layer: 5
  m_Name: Background
  m_TagString: Untagged
  m_Icon: {fileID: 0}
  m_NavMeshLayer: 0
  m_StaticEditorFlags: 0
  m_IsActive: 1
--- !u!224 &867218952
RectTransform:
  m_ObjectHideFlags: 0
  m_PrefabParentObject: {fileID: 22418684, guid: 863a0315eb7aa5349ba3dd88bfdbc120,
    type: 2}
  m_PrefabInternal: {fileID: 0}
  m_GameObject: {fileID: 867218951}
  m_LocalRotation: {x: 0, y: 0, z: 0, w: 1}
  m_LocalPosition: {x: 0, y: 0, z: 0}
  m_LocalScale: {x: 1, y: 1, z: 1}
  m_Children: []
  m_Father: {fileID: 1739449733}
  m_RootOrder: 0
  m_LocalEulerAnglesHint: {x: 0, y: 0, z: 0}
  m_AnchorMin: {x: 0, y: 0}
  m_AnchorMax: {x: 1, y: 1}
  m_AnchoredPosition: {x: 0, y: 0}
  m_SizeDelta: {x: 0, y: 0}
  m_Pivot: {x: 0.5, y: 0.5}
--- !u!222 &867218953
CanvasRenderer:
  m_ObjectHideFlags: 0
  m_PrefabParentObject: {fileID: 22260174, guid: 863a0315eb7aa5349ba3dd88bfdbc120,
    type: 2}
  m_PrefabInternal: {fileID: 0}
  m_GameObject: {fileID: 867218951}
--- !u!1 &899882833
GameObject:
  m_ObjectHideFlags: 0
  m_PrefabParentObject: {fileID: 107088, guid: 863a0315eb7aa5349ba3dd88bfdbc120, type: 2}
  m_PrefabInternal: {fileID: 0}
  serializedVersion: 5
  m_Component:
  - component: {fileID: 899882834}
  - component: {fileID: 899882836}
  - component: {fileID: 899882835}
  m_Layer: 5
  m_Name: Fill
  m_TagString: Untagged
  m_Icon: {fileID: 0}
  m_NavMeshLayer: 0
  m_StaticEditorFlags: 0
  m_IsActive: 1
--- !u!224 &899882834
RectTransform:
  m_ObjectHideFlags: 0
  m_PrefabParentObject: {fileID: 22442236, guid: 863a0315eb7aa5349ba3dd88bfdbc120,
    type: 2}
  m_PrefabInternal: {fileID: 0}
  m_GameObject: {fileID: 899882833}
  m_LocalRotation: {x: 0, y: 0, z: 0, w: 1}
  m_LocalPosition: {x: 0, y: 0, z: 0}
  m_LocalScale: {x: 1, y: 1, z: 1}
  m_Children: []
  m_Father: {fileID: 2115544538}
  m_RootOrder: 0
  m_LocalEulerAnglesHint: {x: 0, y: 0, z: 0}
  m_AnchorMin: {x: 0, y: 0}
  m_AnchorMax: {x: 0, y: 0}
  m_AnchoredPosition: {x: 0, y: 0}
  m_SizeDelta: {x: 0, y: 0}
  m_Pivot: {x: 0.5, y: 0.5}
--- !u!114 &899882835
MonoBehaviour:
  m_ObjectHideFlags: 0
  m_PrefabParentObject: {fileID: 11401468, guid: 863a0315eb7aa5349ba3dd88bfdbc120,
    type: 2}
  m_PrefabInternal: {fileID: 0}
  m_GameObject: {fileID: 899882833}
  m_Enabled: 1
  m_EditorHideFlags: 0
  m_Script: {fileID: -765806418, guid: f5f67c52d1564df4a8936ccd202a3bd8, type: 3}
  m_Name: 
  m_EditorClassIdentifier: 
  m_Material: {fileID: 0}
  m_Color: {r: 0.9137255, g: 0.11764706, b: 0.3882353, a: 1}
  m_RaycastTarget: 1
  m_OnCullStateChanged:
    m_PersistentCalls:
      m_Calls: []
    m_TypeName: UnityEngine.UI.MaskableGraphic+CullStateChangedEvent, UnityEngine.UI,
      Version=1.0.0.0, Culture=neutral, PublicKeyToken=null
  m_Sprite: {fileID: 10905, guid: 0000000000000000f000000000000000, type: 0}
  m_Type: 1
  m_PreserveAspect: 0
  m_FillCenter: 1
  m_FillMethod: 4
  m_FillAmount: 1
  m_FillClockwise: 1
  m_FillOrigin: 0
--- !u!222 &899882836
CanvasRenderer:
  m_ObjectHideFlags: 0
  m_PrefabParentObject: {fileID: 22271376, guid: 863a0315eb7aa5349ba3dd88bfdbc120,
    type: 2}
  m_PrefabInternal: {fileID: 0}
  m_GameObject: {fileID: 899882833}
--- !u!114 &1138161144
MonoBehaviour:
  m_ObjectHideFlags: 0
  m_PrefabParentObject: {fileID: 11457302, guid: 863a0315eb7aa5349ba3dd88bfdbc120,
    type: 2}
  m_PrefabInternal: {fileID: 0}
  m_GameObject: {fileID: 788846012}
  m_Enabled: 1
  m_EditorHideFlags: 0
  m_Script: {fileID: 11500000, guid: 3138a0d76dfdea846a0a250e0c262f75, type: 3}
  m_Name: 
  m_EditorClassIdentifier: 
  m_Duration: 1
  m_Audio: {fileID: 788846019}
  m_OnOverClip: {fileID: 8300000, guid: 2bd66143af0efeb4e884e4273d2ed956, type: 3}
  m_OnFilledClip: {fileID: 8300000, guid: 9f9d2c4dc4b50704bbf83a0e84e35936, type: 3}
  m_Slider: {fileID: 1812059126}
  m_InteractiveItem: {fileID: 788846014}
  m_VRInput: {fileID: 1806677645}
  m_BarCanvas: {fileID: 788846012}
  m_Renderer: {fileID: 0}
  m_SelectionRadial: {fileID: 0}
  m_UIFader: {fileID: 1528763240}
  m_Collider: {fileID: 788846016}
  m_DisableOnBarFill: 0
  m_DisappearOnBarFill: 0
--- !u!1 &1181094015
GameObject:
  m_ObjectHideFlags: 0
  m_PrefabParentObject: {fileID: 182974, guid: cb6e955ed2fa8094eaf245a9707e581a, type: 2}
  m_PrefabInternal: {fileID: 0}
  serializedVersion: 5
  m_Component:
  - component: {fileID: 1181094016}
  - component: {fileID: 1181094018}
  - component: {fileID: 1181094017}
  m_Layer: 5
  m_Name: Title
  m_TagString: Untagged
  m_Icon: {fileID: 0}
  m_NavMeshLayer: 0
  m_StaticEditorFlags: 0
  m_IsActive: 1
--- !u!224 &1181094016
RectTransform:
  m_ObjectHideFlags: 0
  m_PrefabParentObject: {fileID: 22410876, guid: cb6e955ed2fa8094eaf245a9707e581a,
    type: 2}
  m_PrefabInternal: {fileID: 0}
  m_GameObject: {fileID: 1181094015}
  m_LocalRotation: {x: 0, y: 0, z: 0, w: 1}
  m_LocalPosition: {x: 0, y: 0, z: 0}
  m_LocalScale: {x: 1, y: 1, z: 1}
  m_Children: []
  m_Father: {fileID: 1244085694}
  m_RootOrder: 0
  m_LocalEulerAnglesHint: {x: 0, y: 0, z: 0}
  m_AnchorMin: {x: 0.5, y: 0.5}
  m_AnchorMax: {x: 0.5, y: 0.5}
  m_AnchoredPosition: {x: 0, y: 18}
  m_SizeDelta: {x: 58, y: 18}
  m_Pivot: {x: 0.5, y: 0}
--- !u!114 &1181094017
MonoBehaviour:
  m_ObjectHideFlags: 0
  m_PrefabParentObject: {fileID: 11405656, guid: cb6e955ed2fa8094eaf245a9707e581a,
    type: 2}
  m_PrefabInternal: {fileID: 0}
  m_GameObject: {fileID: 1181094015}
  m_Enabled: 1
  m_EditorHideFlags: 0
  m_Script: {fileID: 708705254, guid: f5f67c52d1564df4a8936ccd202a3bd8, type: 3}
  m_Name: 
  m_EditorClassIdentifier: 
  m_Material: {fileID: 0}
  m_Color: {r: 0.13333334, g: 0.17254902, b: 0.21568628, a: 1}
  m_RaycastTarget: 1
  m_OnCullStateChanged:
    m_PersistentCalls:
      m_Calls: []
    m_TypeName: UnityEngine.UI.MaskableGraphic+CullStateChangedEvent, UnityEngine.UI,
      Version=1.0.0.0, Culture=neutral, PublicKeyToken=null
  m_FontData:
    m_Font: {fileID: 12800000, guid: 8c740fb154a0e534aa1c489395c538fb, type: 3}
    m_FontSize: 20
    m_FontStyle: 0
    m_BestFit: 0
    m_MinSize: 10
    m_MaxSize: 40
    m_Alignment: 4
    m_AlignByGeometry: 0
    m_RichText: 1
    m_HorizontalOverflow: 1
    m_VerticalOverflow: 1
    m_LineSpacing: 1
  m_Text: Baskeball Playbook Client
--- !u!222 &1181094018
CanvasRenderer:
  m_ObjectHideFlags: 0
  m_PrefabParentObject: {fileID: 22202296, guid: cb6e955ed2fa8094eaf245a9707e581a,
    type: 2}
  m_PrefabInternal: {fileID: 0}
  m_GameObject: {fileID: 1181094015}
--- !u!1 &1182027538
GameObject:
  m_ObjectHideFlags: 0
  m_PrefabParentObject: {fileID: 0}
  m_PrefabInternal: {fileID: 0}
  serializedVersion: 5
  m_Component:
  - component: {fileID: 1182027539}
  m_Layer: 0
  m_Name: System
  m_TagString: Untagged
  m_Icon: {fileID: 0}
  m_NavMeshLayer: 0
  m_StaticEditorFlags: 0
  m_IsActive: 1
--- !u!4 &1182027539
Transform:
  m_ObjectHideFlags: 0
  m_PrefabParentObject: {fileID: 0}
  m_PrefabInternal: {fileID: 0}
  m_GameObject: {fileID: 1182027538}
  m_LocalRotation: {x: 0, y: 0, z: 0, w: 1}
  m_LocalPosition: {x: 0, y: 0, z: 0}
  m_LocalScale: {x: 1, y: 1, z: 1}
  m_Children:
  - {fileID: 712889876}
  - {fileID: 1530708827}
  m_Father: {fileID: 0}
  m_RootOrder: 1
  m_LocalEulerAnglesHint: {x: 0, y: 0, z: 0}
--- !u!1 &1211322429
GameObject:
  m_ObjectHideFlags: 0
  m_PrefabParentObject: {fileID: 123798, guid: cb6e955ed2fa8094eaf245a9707e581a, type: 2}
  m_PrefabInternal: {fileID: 0}
  serializedVersion: 5
  m_Component:
  - component: {fileID: 1211322430}
  - component: {fileID: 1211322432}
  - component: {fileID: 1211322431}
  m_Layer: 5
  m_Name: BodyText
  m_TagString: Untagged
  m_Icon: {fileID: 0}
  m_NavMeshLayer: 0
  m_StaticEditorFlags: 0
  m_IsActive: 1
--- !u!224 &1211322430
RectTransform:
  m_ObjectHideFlags: 0
  m_PrefabParentObject: {fileID: 22492946, guid: cb6e955ed2fa8094eaf245a9707e581a,
    type: 2}
  m_PrefabInternal: {fileID: 0}
  m_GameObject: {fileID: 1211322429}
  m_LocalRotation: {x: 0, y: 0, z: 0, w: 1}
  m_LocalPosition: {x: 0, y: 0, z: 0}
  m_LocalScale: {x: 1, y: 1, z: 1}
  m_Children: []
  m_Father: {fileID: 423507110}
  m_RootOrder: 1
  m_LocalEulerAnglesHint: {x: 0, y: 0, z: 0}
  m_AnchorMin: {x: 0.5, y: 0.5}
  m_AnchorMax: {x: 0.5, y: 0.5}
  m_AnchoredPosition: {x: 0, y: 14.4}
  m_SizeDelta: {x: 160, y: 30}
  m_Pivot: {x: 0.5, y: 1}
--- !u!114 &1211322431
MonoBehaviour:
  m_ObjectHideFlags: 0
  m_PrefabParentObject: {fileID: 11459540, guid: cb6e955ed2fa8094eaf245a9707e581a,
    type: 2}
  m_PrefabInternal: {fileID: 0}
  m_GameObject: {fileID: 1211322429}
  m_Enabled: 1
  m_EditorHideFlags: 0
  m_Script: {fileID: 708705254, guid: f5f67c52d1564df4a8936ccd202a3bd8, type: 3}
  m_Name: 
  m_EditorClassIdentifier: 
  m_Material: {fileID: 0}
  m_Color: {r: 0.13333334, g: 0.17254902, b: 0.21568628, a: 1}
  m_RaycastTarget: 1
  m_OnCullStateChanged:
    m_PersistentCalls:
      m_Calls: []
    m_TypeName: UnityEngine.UI.MaskableGraphic+CullStateChangedEvent, UnityEngine.UI,
      Version=1.0.0.0, Culture=neutral, PublicKeyToken=null
  m_FontData:
    m_Font: {fileID: 12800000, guid: 8c740fb154a0e534aa1c489395c538fb, type: 3}
    m_FontSize: 9
    m_FontStyle: 0
    m_BestFit: 0
    m_MinSize: 9
    m_MaxSize: 40
    m_Alignment: 1
    m_AlignByGeometry: 0
    m_RichText: 1
    m_HorizontalOverflow: 1
    m_VerticalOverflow: 1
    m_LineSpacing: 1
  m_Text: 'Now you know how to interact with things!

    Let''s try once more to be sure,

    then you''re on your own...




    (<b>HOLD FIRE</b> to select the button)'
--- !u!222 &1211322432
CanvasRenderer:
  m_ObjectHideFlags: 0
  m_PrefabParentObject: {fileID: 22296662, guid: cb6e955ed2fa8094eaf245a9707e581a,
    type: 2}
  m_PrefabInternal: {fileID: 0}
  m_GameObject: {fileID: 1211322429}
--- !u!224 &1244085694
RectTransform:
  m_ObjectHideFlags: 0
  m_PrefabParentObject: {fileID: 22402564, guid: cb6e955ed2fa8094eaf245a9707e581a,
    type: 2}
  m_PrefabInternal: {fileID: 0}
  m_GameObject: {fileID: 1244085695}
  m_LocalRotation: {x: 0, y: 0, z: 0, w: 1}
  m_LocalPosition: {x: 0, y: 0, z: 8.27}
  m_LocalScale: {x: 0.04451718, y: 0.044517178, z: 0.044517178}
  m_Children:
  - {fileID: 1181094016}
  - {fileID: 84724687}
  m_Father: {fileID: 1528763239}
  m_RootOrder: 0
  m_LocalEulerAnglesHint: {x: 0, y: 0, z: 0}
  m_AnchorMin: {x: 0, y: 0}
  m_AnchorMax: {x: 0, y: 0}
  m_AnchoredPosition: {x: 0, y: 1.7}
  m_SizeDelta: {x: 250, y: 150}
  m_Pivot: {x: 0.5, y: 0.5}
--- !u!1 &1244085695
GameObject:
  m_ObjectHideFlags: 0
  m_PrefabParentObject: {fileID: 193722, guid: cb6e955ed2fa8094eaf245a9707e581a, type: 2}
  m_PrefabInternal: {fileID: 0}
  serializedVersion: 5
  m_Component:
  - component: {fileID: 1244085694}
  - component: {fileID: 1244085698}
  - component: {fileID: 1244085697}
  - component: {fileID: 1244085696}
  m_Layer: 5
  m_Name: IntroInstructions
  m_TagString: Untagged
  m_Icon: {fileID: 0}
  m_NavMeshLayer: 0
  m_StaticEditorFlags: 0
  m_IsActive: 1
--- !u!225 &1244085696
CanvasGroup:
  m_ObjectHideFlags: 0
  m_PrefabParentObject: {fileID: 0}
  m_PrefabInternal: {fileID: 0}
  m_GameObject: {fileID: 1244085695}
  m_Enabled: 1
  m_Alpha: 1
  m_Interactable: 1
  m_BlocksRaycasts: 1
  m_IgnoreParentGroups: 0
--- !u!114 &1244085697
MonoBehaviour:
  m_ObjectHideFlags: 0
  m_PrefabParentObject: {fileID: 11419582, guid: cb6e955ed2fa8094eaf245a9707e581a,
    type: 2}
  m_PrefabInternal: {fileID: 0}
  m_GameObject: {fileID: 1244085695}
  m_Enabled: 1
  m_EditorHideFlags: 0
  m_Script: {fileID: 1980459831, guid: f5f67c52d1564df4a8936ccd202a3bd8, type: 3}
  m_Name: 
  m_EditorClassIdentifier: 
  m_UiScaleMode: 0
  m_ReferencePixelsPerUnit: 1
  m_ScaleFactor: 1
  m_ReferenceResolution: {x: 800, y: 600}
  m_ScreenMatchMode: 0
  m_MatchWidthOrHeight: 0
  m_PhysicalUnit: 3
  m_FallbackScreenDPI: 96
  m_DefaultSpriteDPI: 96
  m_DynamicPixelsPerUnit: 4
--- !u!223 &1244085698
Canvas:
  m_ObjectHideFlags: 0
  m_PrefabParentObject: {fileID: 22380436, guid: cb6e955ed2fa8094eaf245a9707e581a,
    type: 2}
  m_PrefabInternal: {fileID: 0}
  m_GameObject: {fileID: 1244085695}
  m_Enabled: 1
  serializedVersion: 3
  m_RenderMode: 2
  m_Camera: {fileID: 0}
  m_PlaneDistance: 100
  m_PixelPerfect: 0
  m_ReceivesEvents: 1
  m_OverrideSorting: 0
  m_OverridePixelPerfect: 0
  m_SortingBucketNormalizedSize: 0
  m_AdditionalShaderChannelsFlag: 25
  m_SortingLayerID: 0
  m_SortingOrder: 0
  m_TargetDisplay: 0
--- !u!1001 &1251792923
Prefab:
  m_ObjectHideFlags: 0
  serializedVersion: 2
  m_Modification:
    m_TransformParent: {fileID: 0}
    m_Modifications:
    - target: {fileID: 22420888, guid: ad9d8e2e1e1e6774bab6f142ed0c6f51, type: 2}
      propertyPath: m_LocalPosition.x
      value: 0
      objectReference: {fileID: 0}
    - target: {fileID: 22420888, guid: ad9d8e2e1e1e6774bab6f142ed0c6f51, type: 2}
      propertyPath: m_LocalPosition.y
      value: 0
      objectReference: {fileID: 0}
    - target: {fileID: 22420888, guid: ad9d8e2e1e1e6774bab6f142ed0c6f51, type: 2}
      propertyPath: m_LocalPosition.z
      value: 0
      objectReference: {fileID: 0}
    - target: {fileID: 22420888, guid: ad9d8e2e1e1e6774bab6f142ed0c6f51, type: 2}
      propertyPath: m_LocalRotation.x
      value: 0
      objectReference: {fileID: 0}
    - target: {fileID: 22420888, guid: ad9d8e2e1e1e6774bab6f142ed0c6f51, type: 2}
      propertyPath: m_LocalRotation.y
      value: 0
      objectReference: {fileID: 0}
    - target: {fileID: 22420888, guid: ad9d8e2e1e1e6774bab6f142ed0c6f51, type: 2}
      propertyPath: m_LocalRotation.z
      value: 0
      objectReference: {fileID: 0}
    - target: {fileID: 22420888, guid: ad9d8e2e1e1e6774bab6f142ed0c6f51, type: 2}
      propertyPath: m_LocalRotation.w
      value: 1
      objectReference: {fileID: 0}
    - target: {fileID: 22420888, guid: ad9d8e2e1e1e6774bab6f142ed0c6f51, type: 2}
      propertyPath: m_RootOrder
      value: 5
      objectReference: {fileID: 0}
    - target: {fileID: 22420888, guid: ad9d8e2e1e1e6774bab6f142ed0c6f51, type: 2}
      propertyPath: m_AnchoredPosition.x
      value: 0
      objectReference: {fileID: 0}
    - target: {fileID: 22420888, guid: ad9d8e2e1e1e6774bab6f142ed0c6f51, type: 2}
      propertyPath: m_AnchoredPosition.y
      value: 0
      objectReference: {fileID: 0}
    - target: {fileID: 22420888, guid: ad9d8e2e1e1e6774bab6f142ed0c6f51, type: 2}
      propertyPath: m_SizeDelta.x
      value: 0.25
      objectReference: {fileID: 0}
    - target: {fileID: 22420888, guid: ad9d8e2e1e1e6774bab6f142ed0c6f51, type: 2}
      propertyPath: m_SizeDelta.y
      value: 0.05
      objectReference: {fileID: 0}
    - target: {fileID: 22420888, guid: ad9d8e2e1e1e6774bab6f142ed0c6f51, type: 2}
      propertyPath: m_AnchorMin.x
      value: 0
      objectReference: {fileID: 0}
    - target: {fileID: 22420888, guid: ad9d8e2e1e1e6774bab6f142ed0c6f51, type: 2}
      propertyPath: m_AnchorMin.y
      value: 0
      objectReference: {fileID: 0}
    - target: {fileID: 22420888, guid: ad9d8e2e1e1e6774bab6f142ed0c6f51, type: 2}
      propertyPath: m_AnchorMax.x
      value: 0
      objectReference: {fileID: 0}
    - target: {fileID: 22420888, guid: ad9d8e2e1e1e6774bab6f142ed0c6f51, type: 2}
      propertyPath: m_AnchorMax.y
      value: 0
      objectReference: {fileID: 0}
    - target: {fileID: 22420888, guid: ad9d8e2e1e1e6774bab6f142ed0c6f51, type: 2}
      propertyPath: m_Pivot.x
      value: 0.5
      objectReference: {fileID: 0}
    - target: {fileID: 22420888, guid: ad9d8e2e1e1e6774bab6f142ed0c6f51, type: 2}
      propertyPath: m_Pivot.y
      value: 0.5
      objectReference: {fileID: 0}
    - target: {fileID: 11420560, guid: ad9d8e2e1e1e6774bab6f142ed0c6f51, type: 2}
      propertyPath: m_Camera
      value: 
      objectReference: {fileID: 1806677651}
    - target: {fileID: 11420560, guid: ad9d8e2e1e1e6774bab6f142ed0c6f51, type: 2}
      propertyPath: m_Reticle
      value: 
      objectReference: {fileID: 1806677642}
    - target: {fileID: 11420560, guid: ad9d8e2e1e1e6774bab6f142ed0c6f51, type: 2}
      propertyPath: m_VRInput
      value: 
      objectReference: {fileID: 1806677645}
    - target: {fileID: 11420560, guid: ad9d8e2e1e1e6774bab6f142ed0c6f51, type: 2}
      propertyPath: m_ShowDoubleTapWarnings
      value: 1
      objectReference: {fileID: 0}
    - target: {fileID: 11420560, guid: ad9d8e2e1e1e6774bab6f142ed0c6f51, type: 2}
      propertyPath: m_ShowSingleTapWarnings
      value: 1
      objectReference: {fileID: 0}
    m_RemovedComponents: []
  m_ParentPrefab: {fileID: 100100000, guid: ad9d8e2e1e1e6774bab6f142ed0c6f51, type: 2}
  m_IsPrefabParent: 0
--- !u!1 &1257493203
GameObject:
  m_ObjectHideFlags: 0
  m_PrefabParentObject: {fileID: 0}
  m_PrefabInternal: {fileID: 0}
  serializedVersion: 5
  m_Component:
  - component: {fileID: 1257493204}
  - component: {fileID: 1257493205}
  - component: {fileID: 1257493206}
  m_Layer: 0
  m_Name: BackGUI
  m_TagString: Untagged
  m_Icon: {fileID: 0}
  m_NavMeshLayer: 0
  m_StaticEditorFlags: 0
  m_IsActive: 1
--- !u!4 &1257493204
Transform:
  m_ObjectHideFlags: 0
  m_PrefabParentObject: {fileID: 0}
  m_PrefabInternal: {fileID: 0}
  m_GameObject: {fileID: 1257493203}
  m_LocalRotation: {x: 0, y: 0, z: 0, w: 1}
  m_LocalPosition: {x: 0, y: 0, z: 0}
  m_LocalScale: {x: 1, y: 1, z: 1}
  m_Children:
  - {fileID: 563393747}
  m_Father: {fileID: 1591880578}
  m_RootOrder: 1
  m_LocalEulerAnglesHint: {x: 0, y: 0, z: 0}
--- !u!114 &1257493205
MonoBehaviour:
  m_ObjectHideFlags: 0
  m_PrefabParentObject: {fileID: 0}
  m_PrefabInternal: {fileID: 0}
  m_GameObject: {fileID: 1257493203}
  m_Enabled: 1
  m_EditorHideFlags: 0
  m_Script: {fileID: 11500000, guid: 36ec501a8570e3f469a983e6ba4c11aa, type: 3}
  m_Name: 
  m_EditorClassIdentifier: 
  m_FadeSpeed: 1
  m_GroupsToFade:
  - {fileID: 563393748}
--- !u!114 &1257493206
MonoBehaviour:
  m_ObjectHideFlags: 0
  m_PrefabParentObject: {fileID: 0}
  m_PrefabInternal: {fileID: 0}
  m_GameObject: {fileID: 1257493203}
  m_Enabled: 1
  m_EditorHideFlags: 0
  m_Script: {fileID: 11500000, guid: 0461d544138945b468d516467d6bd6da, type: 3}
  m_Name: 
  m_EditorClassIdentifier: 
  m_TextComponent: {fileID: 756518352}
  m_PlatformTextPairs:
  - m_Platform: 11
    m_Text: 'TO RETURN TO THE MAIN MENU

      <b>PRESS BACK*</b> AT ANY TIME

      Let''s try it!


      *<b>The GearVR BACK BUTTON</b>'
  - m_Platform: 2
    m_Text: 'TO RETURN TO THE MAIN MENU

      <b>PRESS BACK*</b> AT ANY TIME

      Let''s try it!


      *<b>The ESC key</b>'
  - m_Platform: 0
    m_Text: 'TO RETURN TO THE MAIN MENU

      <b>PRESS BACK*</b> AT ANY TIME

      Let''s try it!



      *<b>The ESC key</b>'
  - m_Platform: 7
    m_Text: 'TO RETURN TO THE MAIN MENU

      <b>PRESS BACK*</b> AT ANY TIME

      Let''s try it!



      *<b>The ESC key</b>'
--- !u!1 &1271789582
GameObject:
  m_ObjectHideFlags: 0
  m_PrefabParentObject: {fileID: 182974, guid: cb6e955ed2fa8094eaf245a9707e581a, type: 2}
  m_PrefabInternal: {fileID: 0}
  serializedVersion: 5
  m_Component:
  - component: {fileID: 1271789583}
  - component: {fileID: 1271789585}
  - component: {fileID: 1271789584}
  m_Layer: 5
  m_Name: Title
  m_TagString: Untagged
  m_Icon: {fileID: 0}
  m_NavMeshLayer: 0
  m_StaticEditorFlags: 0
  m_IsActive: 1
--- !u!224 &1271789583
RectTransform:
  m_ObjectHideFlags: 0
  m_PrefabParentObject: {fileID: 22410876, guid: cb6e955ed2fa8094eaf245a9707e581a,
    type: 2}
  m_PrefabInternal: {fileID: 0}
  m_GameObject: {fileID: 1271789582}
  m_LocalRotation: {x: 0, y: 0, z: 0, w: 1}
  m_LocalPosition: {x: 0, y: 0, z: 0}
  m_LocalScale: {x: 1, y: 1, z: 1}
  m_Children: []
  m_Father: {fileID: 423507110}
  m_RootOrder: 0
  m_LocalEulerAnglesHint: {x: 0, y: 0, z: 0}
  m_AnchorMin: {x: 0.5, y: 0.5}
  m_AnchorMax: {x: 0.5, y: 0.5}
  m_AnchoredPosition: {x: 0, y: 18}
  m_SizeDelta: {x: 58, y: 18}
  m_Pivot: {x: 0.5, y: 0}
--- !u!114 &1271789584
MonoBehaviour:
  m_ObjectHideFlags: 0
  m_PrefabParentObject: {fileID: 11405656, guid: cb6e955ed2fa8094eaf245a9707e581a,
    type: 2}
  m_PrefabInternal: {fileID: 0}
  m_GameObject: {fileID: 1271789582}
  m_Enabled: 1
  m_EditorHideFlags: 0
  m_Script: {fileID: 708705254, guid: f5f67c52d1564df4a8936ccd202a3bd8, type: 3}
  m_Name: 
  m_EditorClassIdentifier: 
  m_Material: {fileID: 0}
  m_Color: {r: 0.13333334, g: 0.17254902, b: 0.21568628, a: 1}
  m_RaycastTarget: 1
  m_OnCullStateChanged:
    m_PersistentCalls:
      m_Calls: []
    m_TypeName: UnityEngine.UI.MaskableGraphic+CullStateChangedEvent, UnityEngine.UI,
      Version=1.0.0.0, Culture=neutral, PublicKeyToken=null
  m_FontData:
    m_Font: {fileID: 12800000, guid: 8c740fb154a0e534aa1c489395c538fb, type: 3}
    m_FontSize: 20
    m_FontStyle: 0
    m_BestFit: 0
    m_MinSize: 10
    m_MaxSize: 40
    m_Alignment: 4
    m_AlignByGeometry: 0
    m_RichText: 1
    m_HorizontalOverflow: 1
    m_VerticalOverflow: 1
    m_LineSpacing: 1
  m_Text: Well Done!
--- !u!222 &1271789585
CanvasRenderer:
  m_ObjectHideFlags: 0
  m_PrefabParentObject: {fileID: 22202296, guid: cb6e955ed2fa8094eaf245a9707e581a,
    type: 2}
  m_PrefabInternal: {fileID: 0}
  m_GameObject: {fileID: 1271789582}
--- !u!1 &1303343901
GameObject:
  m_ObjectHideFlags: 0
  m_PrefabParentObject: {fileID: 103972, guid: 863a0315eb7aa5349ba3dd88bfdbc120, type: 2}
  m_PrefabInternal: {fileID: 0}
  serializedVersion: 5
  m_Component:
  - component: {fileID: 453955609}
  - component: {fileID: 1303343907}
  - component: {fileID: 1303343906}
  - component: {fileID: 1303343904}
  - component: {fileID: 1303343905}
  - component: {fileID: 453955610}
  - component: {fileID: 1303343903}
  - component: {fileID: 1303343902}
  - component: {fileID: 1303343908}
  m_Layer: 5
  m_Name: CompleteSelectionSlider
  m_TagString: Untagged
  m_Icon: {fileID: 0}
  m_NavMeshLayer: 0
  m_StaticEditorFlags: 0
  m_IsActive: 1
--- !u!114 &1303343902
MonoBehaviour:
  m_ObjectHideFlags: 0
  m_PrefabParentObject: {fileID: 11411124, guid: 863a0315eb7aa5349ba3dd88bfdbc120,
    type: 2}
  m_PrefabInternal: {fileID: 0}
  m_GameObject: {fileID: 1303343901}
  m_Enabled: 1
  m_EditorHideFlags: 0
  m_Script: {fileID: 11500000, guid: 5c2ebf5953b4e0b4685bd8d238e8caa9, type: 3}
  m_Name: 
  m_EditorClassIdentifier: 
  m_Tint: {r: 0.48235294, g: 0.8, b: 0.8, a: 0}
  m_TintPercent: 0.3
  m_ImagesToTint:
  - {fileID: 36352810}
  m_InteractiveItem: {fileID: 1303343904}
--- !u!225 &1303343903
CanvasGroup:
  m_ObjectHideFlags: 0
  m_PrefabParentObject: {fileID: 22520670, guid: 863a0315eb7aa5349ba3dd88bfdbc120,
    type: 2}
  m_PrefabInternal: {fileID: 0}
  m_GameObject: {fileID: 1303343901}
  m_Enabled: 1
  m_Alpha: 0
  m_Interactable: 1
  m_BlocksRaycasts: 1
  m_IgnoreParentGroups: 0
--- !u!114 &1303343904
MonoBehaviour:
  m_ObjectHideFlags: 0
  m_PrefabParentObject: {fileID: 11471302, guid: 863a0315eb7aa5349ba3dd88bfdbc120,
    type: 2}
  m_PrefabInternal: {fileID: 0}
  m_GameObject: {fileID: 1303343901}
  m_Enabled: 1
  m_EditorHideFlags: 0
  m_Script: {fileID: 11500000, guid: 7fea6f8eea666334aaf9869ad8f7bcda, type: 3}
  m_Name: 
  m_EditorClassIdentifier: 
--- !u!65 &1303343905
BoxCollider:
  m_ObjectHideFlags: 0
  m_PrefabParentObject: {fileID: 6557976, guid: 863a0315eb7aa5349ba3dd88bfdbc120,
    type: 2}
  m_PrefabInternal: {fileID: 0}
  m_GameObject: {fileID: 1303343901}
  m_Material: {fileID: 0}
  m_IsTrigger: 0
  m_Enabled: 1
  serializedVersion: 2
  m_Size: {x: 30, y: 6, z: 0.01}
  m_Center: {x: 0, y: 0, z: 0}
--- !u!114 &1303343906
MonoBehaviour:
  m_ObjectHideFlags: 0
  m_PrefabParentObject: {fileID: 11496222, guid: 863a0315eb7aa5349ba3dd88bfdbc120,
    type: 2}
  m_PrefabInternal: {fileID: 0}
  m_GameObject: {fileID: 1303343901}
  m_Enabled: 1
  m_EditorHideFlags: 0
  m_Script: {fileID: 1980459831, guid: f5f67c52d1564df4a8936ccd202a3bd8, type: 3}
  m_Name: 
  m_EditorClassIdentifier: 
  m_UiScaleMode: 0
  m_ReferencePixelsPerUnit: 1
  m_ScaleFactor: 1
  m_ReferenceResolution: {x: 800, y: 600}
  m_ScreenMatchMode: 0
  m_MatchWidthOrHeight: 0
  m_PhysicalUnit: 3
  m_FallbackScreenDPI: 96
  m_DefaultSpriteDPI: 96
  m_DynamicPixelsPerUnit: 7
--- !u!223 &1303343907
Canvas:
  m_ObjectHideFlags: 0
  m_PrefabParentObject: {fileID: 22326030, guid: 863a0315eb7aa5349ba3dd88bfdbc120,
    type: 2}
  m_PrefabInternal: {fileID: 0}
  m_GameObject: {fileID: 1303343901}
  m_Enabled: 1
  serializedVersion: 3
  m_RenderMode: 2
  m_Camera: {fileID: 0}
  m_PlaneDistance: 100
  m_PixelPerfect: 0
  m_ReceivesEvents: 1
  m_OverrideSorting: 0
  m_OverridePixelPerfect: 0
  m_SortingBucketNormalizedSize: 0
  m_AdditionalShaderChannelsFlag: 25
  m_SortingLayerID: 0
  m_SortingOrder: 0
  m_TargetDisplay: 0
--- !u!82 &1303343908
AudioSource:
  m_ObjectHideFlags: 0
  m_PrefabParentObject: {fileID: 0}
  m_PrefabInternal: {fileID: 0}
  m_GameObject: {fileID: 1303343901}
  m_Enabled: 1
  serializedVersion: 4
  OutputAudioMixerGroup: {fileID: 0}
  m_audioClip: {fileID: 0}
  m_PlayOnAwake: 1
  m_Volume: 1
  m_Pitch: 1
  Loop: 0
  Mute: 0
  Spatialize: 0
  SpatializePostEffects: 0
  Priority: 128
  DopplerLevel: 1
  MinDistance: 1
  MaxDistance: 500
  Pan2D: 0
  rolloffMode: 0
  BypassEffects: 0
  BypassListenerEffects: 0
  BypassReverbZones: 0
  rolloffCustomCurve:
    serializedVersion: 2
    m_Curve:
    - serializedVersion: 2
      time: 0
      value: 1
      inSlope: 0
      outSlope: 0
      tangentMode: 0
    - serializedVersion: 2
      time: 1
      value: 0
      inSlope: 0
      outSlope: 0
      tangentMode: 0
    m_PreInfinity: 2
    m_PostInfinity: 2
    m_RotationOrder: 4
  panLevelCustomCurve:
    serializedVersion: 2
    m_Curve:
    - serializedVersion: 2
      time: 0
      value: 0
      inSlope: 0
      outSlope: 0
      tangentMode: 0
    m_PreInfinity: 2
    m_PostInfinity: 2
    m_RotationOrder: 0
  spreadCustomCurve:
    serializedVersion: 2
    m_Curve:
    - serializedVersion: 2
      time: 0
      value: 0
      inSlope: 0
      outSlope: 0
      tangentMode: 0
    m_PreInfinity: 2
    m_PostInfinity: 2
    m_RotationOrder: 4
  reverbZoneMixCustomCurve:
    serializedVersion: 2
    m_Curve:
    - serializedVersion: 2
      time: 0
      value: 1
      inSlope: 0
      outSlope: 0
      tangentMode: 0
    m_PreInfinity: 2
    m_PostInfinity: 2
    m_RotationOrder: 0
--- !u!1 &1312647933
GameObject:
  m_ObjectHideFlags: 0
  m_PrefabParentObject: {fileID: 107088, guid: 863a0315eb7aa5349ba3dd88bfdbc120, type: 2}
  m_PrefabInternal: {fileID: 0}
  serializedVersion: 5
  m_Component:
  - component: {fileID: 1312647934}
  - component: {fileID: 1312647936}
  - component: {fileID: 1312647935}
  m_Layer: 5
  m_Name: Fill
  m_TagString: Untagged
  m_Icon: {fileID: 0}
  m_NavMeshLayer: 0
  m_StaticEditorFlags: 0
  m_IsActive: 1
--- !u!224 &1312647934
RectTransform:
  m_ObjectHideFlags: 0
  m_PrefabParentObject: {fileID: 22442236, guid: 863a0315eb7aa5349ba3dd88bfdbc120,
    type: 2}
  m_PrefabInternal: {fileID: 0}
  m_GameObject: {fileID: 1312647933}
  m_LocalRotation: {x: 0, y: 0, z: 0, w: 1}
  m_LocalPosition: {x: 0, y: 0, z: 0}
  m_LocalScale: {x: 1, y: 1, z: 1}
  m_Children: []
  m_Father: {fileID: 1544473574}
  m_RootOrder: 0
  m_LocalEulerAnglesHint: {x: 0, y: 0, z: 0}
  m_AnchorMin: {x: 0, y: 0}
  m_AnchorMax: {x: 0, y: 0}
  m_AnchoredPosition: {x: 0, y: 0}
  m_SizeDelta: {x: 0, y: 0}
  m_Pivot: {x: 0.5, y: 0.5}
--- !u!114 &1312647935
MonoBehaviour:
  m_ObjectHideFlags: 0
  m_PrefabParentObject: {fileID: 11401468, guid: 863a0315eb7aa5349ba3dd88bfdbc120,
    type: 2}
  m_PrefabInternal: {fileID: 0}
  m_GameObject: {fileID: 1312647933}
  m_Enabled: 1
  m_EditorHideFlags: 0
  m_Script: {fileID: -765806418, guid: f5f67c52d1564df4a8936ccd202a3bd8, type: 3}
  m_Name: 
  m_EditorClassIdentifier: 
  m_Material: {fileID: 0}
  m_Color: {r: 0.9137255, g: 0.11764706, b: 0.3882353, a: 1}
  m_RaycastTarget: 1
  m_OnCullStateChanged:
    m_PersistentCalls:
      m_Calls: []
    m_TypeName: UnityEngine.UI.MaskableGraphic+CullStateChangedEvent, UnityEngine.UI,
      Version=1.0.0.0, Culture=neutral, PublicKeyToken=null
  m_Sprite: {fileID: 10905, guid: 0000000000000000f000000000000000, type: 0}
  m_Type: 1
  m_PreserveAspect: 0
  m_FillCenter: 1
  m_FillMethod: 4
  m_FillAmount: 1
  m_FillClockwise: 1
  m_FillOrigin: 0
--- !u!222 &1312647936
CanvasRenderer:
  m_ObjectHideFlags: 0
  m_PrefabParentObject: {fileID: 22271376, guid: 863a0315eb7aa5349ba3dd88bfdbc120,
    type: 2}
  m_PrefabInternal: {fileID: 0}
  m_GameObject: {fileID: 1312647933}
--- !u!1001 &1326566810
Prefab:
  m_ObjectHideFlags: 0
  serializedVersion: 2
  m_Modification:
    m_TransformParent: {fileID: 0}
    m_Modifications:
    - target: {fileID: 493278, guid: ccf8c8cc05aad7b40a8deb4f73296da4, type: 2}
      propertyPath: m_LocalPosition.x
      value: 0
      objectReference: {fileID: 0}
    - target: {fileID: 493278, guid: ccf8c8cc05aad7b40a8deb4f73296da4, type: 2}
      propertyPath: m_LocalPosition.y
      value: 1.5
      objectReference: {fileID: 0}
    - target: {fileID: 493278, guid: ccf8c8cc05aad7b40a8deb4f73296da4, type: 2}
      propertyPath: m_LocalPosition.z
      value: 0
      objectReference: {fileID: 0}
    - target: {fileID: 493278, guid: ccf8c8cc05aad7b40a8deb4f73296da4, type: 2}
      propertyPath: m_LocalRotation.x
      value: 0
      objectReference: {fileID: 0}
    - target: {fileID: 493278, guid: ccf8c8cc05aad7b40a8deb4f73296da4, type: 2}
      propertyPath: m_LocalRotation.y
      value: 0
      objectReference: {fileID: 0}
    - target: {fileID: 493278, guid: ccf8c8cc05aad7b40a8deb4f73296da4, type: 2}
      propertyPath: m_LocalRotation.z
      value: 0
      objectReference: {fileID: 0}
    - target: {fileID: 493278, guid: ccf8c8cc05aad7b40a8deb4f73296da4, type: 2}
      propertyPath: m_LocalRotation.w
      value: 1
      objectReference: {fileID: 0}
    - target: {fileID: 493278, guid: ccf8c8cc05aad7b40a8deb4f73296da4, type: 2}
      propertyPath: m_RootOrder
      value: 4
      objectReference: {fileID: 0}
    - target: {fileID: 11458036, guid: ccf8c8cc05aad7b40a8deb4f73296da4, type: 2}
      propertyPath: m_HideOnStart
      value: 0
      objectReference: {fileID: 0}
    - target: {fileID: 11404258, guid: ccf8c8cc05aad7b40a8deb4f73296da4, type: 2}
      propertyPath: m_Color.r
      value: 0.9137255
      objectReference: {fileID: 0}
    - target: {fileID: 11404258, guid: ccf8c8cc05aad7b40a8deb4f73296da4, type: 2}
      propertyPath: m_Color.g
      value: 0.11764706
      objectReference: {fileID: 0}
    - target: {fileID: 11404258, guid: ccf8c8cc05aad7b40a8deb4f73296da4, type: 2}
      propertyPath: m_Color.b
      value: 0.3882353
      objectReference: {fileID: 0}
    - target: {fileID: 11491538, guid: ccf8c8cc05aad7b40a8deb4f73296da4, type: 2}
      propertyPath: m_Color.r
      value: 0.9137255
      objectReference: {fileID: 0}
    - target: {fileID: 11491538, guid: ccf8c8cc05aad7b40a8deb4f73296da4, type: 2}
      propertyPath: m_Color.g
      value: 0.11764706
      objectReference: {fileID: 0}
    - target: {fileID: 11491538, guid: ccf8c8cc05aad7b40a8deb4f73296da4, type: 2}
      propertyPath: m_Color.b
      value: 0.3882353
      objectReference: {fileID: 0}
    - target: {fileID: 11424812, guid: ccf8c8cc05aad7b40a8deb4f73296da4, type: 2}
      propertyPath: m_Color.r
      value: 0.9137255
      objectReference: {fileID: 0}
    - target: {fileID: 11424812, guid: ccf8c8cc05aad7b40a8deb4f73296da4, type: 2}
      propertyPath: m_Color.g
      value: 0.11764706
      objectReference: {fileID: 0}
    - target: {fileID: 11424812, guid: ccf8c8cc05aad7b40a8deb4f73296da4, type: 2}
      propertyPath: m_Color.b
      value: 0.3882353
      objectReference: {fileID: 0}
    - target: {fileID: 11421516, guid: ccf8c8cc05aad7b40a8deb4f73296da4, type: 2}
      propertyPath: m_Color.r
      value: 0.9137255
      objectReference: {fileID: 0}
    - target: {fileID: 11421516, guid: ccf8c8cc05aad7b40a8deb4f73296da4, type: 2}
      propertyPath: m_Color.g
      value: 0.11764706
      objectReference: {fileID: 0}
    - target: {fileID: 11421516, guid: ccf8c8cc05aad7b40a8deb4f73296da4, type: 2}
      propertyPath: m_Color.b
      value: 0.3882353
      objectReference: {fileID: 0}
    m_RemovedComponents: []
  m_ParentPrefab: {fileID: 100100000, guid: ccf8c8cc05aad7b40a8deb4f73296da4, type: 2}
  m_IsPrefabParent: 0
--- !u!224 &1487780014
RectTransform:
  m_ObjectHideFlags: 0
  m_PrefabParentObject: {fileID: 22422862, guid: 863a0315eb7aa5349ba3dd88bfdbc120,
    type: 2}
  m_PrefabInternal: {fileID: 0}
  m_GameObject: {fileID: 788846012}
  m_LocalRotation: {x: -0.000000029802322, y: 0, z: 0, w: 1}
  m_LocalPosition: {x: 0, y: 0, z: 6}
  m_LocalScale: {x: 0.075, y: 0.075, z: 0.075}
  m_Children:
  - {fileID: 1812059125}
  m_Father: {fileID: 1528763239}
  m_RootOrder: 1
  m_LocalEulerAnglesHint: {x: 0, y: 0, z: 0}
  m_AnchorMin: {x: 0, y: 0}
  m_AnchorMax: {x: 0, y: 0}
  m_AnchoredPosition: {x: 0, y: 0.6}
  m_SizeDelta: {x: 50, y: 20}
  m_Pivot: {x: 0.5, y: 0.5}
--- !u!1 &1528763238
GameObject:
  m_ObjectHideFlags: 0
  m_PrefabParentObject: {fileID: 0}
  m_PrefabInternal: {fileID: 0}
  serializedVersion: 5
  m_Component:
  - component: {fileID: 1528763239}
  - component: {fileID: 1528763240}
  - component: {fileID: 1528763241}
  m_Layer: 0
  m_Name: InstructionsGUI
  m_TagString: Untagged
  m_Icon: {fileID: 0}
  m_NavMeshLayer: 0
  m_StaticEditorFlags: 0
  m_IsActive: 1
--- !u!4 &1528763239
Transform:
  m_ObjectHideFlags: 0
  m_PrefabParentObject: {fileID: 0}
  m_PrefabInternal: {fileID: 0}
  m_GameObject: {fileID: 1528763238}
  m_LocalRotation: {x: 0, y: 0, z: 0, w: 1}
  m_LocalPosition: {x: 0, y: 0, z: 0}
  m_LocalScale: {x: 1, y: 1, z: 1}
  m_Children:
  - {fileID: 1244085694}
  - {fileID: 1487780014}
  m_Father: {fileID: 1591880578}
  m_RootOrder: 0
  m_LocalEulerAnglesHint: {x: 0, y: 0, z: 0}
--- !u!114 &1528763240
MonoBehaviour:
  m_ObjectHideFlags: 0
  m_PrefabParentObject: {fileID: 0}
  m_PrefabInternal: {fileID: 0}
  m_GameObject: {fileID: 1528763238}
  m_Enabled: 1
  m_EditorHideFlags: 0
  m_Script: {fileID: 11500000, guid: 36ec501a8570e3f469a983e6ba4c11aa, type: 3}
  m_Name: 
  m_EditorClassIdentifier: 
  m_FadeSpeed: 1
  m_GroupsToFade:
  - {fileID: 1244085696}
  - {fileID: 788846015}
--- !u!114 &1528763241
MonoBehaviour:
  m_ObjectHideFlags: 0
  m_PrefabParentObject: {fileID: 0}
  m_PrefabInternal: {fileID: 0}
  m_GameObject: {fileID: 1528763238}
  m_Enabled: 1
  m_EditorHideFlags: 0
  m_Script: {fileID: 11500000, guid: 0461d544138945b468d516467d6bd6da, type: 3}
  m_Name: 
  m_EditorClassIdentifier: 
  m_TextComponent: {fileID: 84724688}
  m_PlatformTextPairs:
  - m_Platform: 0
    m_Text: "<b>LOOK AT</b> INTERACTABLES, \n<b>HOLD YOUR GAZE</b> TO SELECT\r\nLet\u2019s
      start! Keep ballin'!"
  - m_Platform: 2
    m_Text: "<b>LOOK AT</b> INTERACTABLES, <b>HOLD FIRE*</b> TO SELECT\r\nLet\u2019s
      practice! Select the button below\n\n\n\n\n<b>*LEFT MOUSE BUTTON</b> OR <b>CTRL</b>"
  - m_Platform: 7
    m_Text: "<b>LOOK AT</b> INTERACTABLES, <b>HOLD FIRE*</b> TO SELECT\r\nLet\u2019s
      practice! Select the button below\n\n\n\n\n<b>*LEFT MOUSE BUTTON</b> OR <b>CTRL</b>"
  - m_Platform: 11
    m_Text: "<b>LOOK AT</b> INTERACTABLES, \n<b>HOLD YOUR GAZE</b> TO SELECT\r\nLet\u2019s
      start! Keep ballin'!"
--- !u!1 &1530708826
GameObject:
  m_ObjectHideFlags: 0
  m_PrefabParentObject: {fileID: 0}
  m_PrefabInternal: {fileID: 0}
  serializedVersion: 5
  m_Component:
  - component: {fileID: 1530708827}
  - component: {fileID: 1530708828}
  m_Layer: 0
  m_Name: IntroManager
  m_TagString: Untagged
  m_Icon: {fileID: 0}
  m_NavMeshLayer: 0
  m_StaticEditorFlags: 0
  m_IsActive: 1
--- !u!4 &1530708827
Transform:
  m_ObjectHideFlags: 0
  m_PrefabParentObject: {fileID: 0}
  m_PrefabInternal: {fileID: 0}
  m_GameObject: {fileID: 1530708826}
  m_LocalRotation: {x: 0, y: 0, z: 0, w: 1}
  m_LocalPosition: {x: 0, y: 0, z: 0}
  m_LocalScale: {x: 1, y: 1, z: 1}
  m_Children: []
  m_Father: {fileID: 1182027539}
  m_RootOrder: 1
  m_LocalEulerAnglesHint: {x: 0, y: 0, z: 0}
--- !u!114 &1530708828
MonoBehaviour:
  m_ObjectHideFlags: 0
  m_PrefabParentObject: {fileID: 0}
  m_PrefabInternal: {fileID: 0}
  m_GameObject: {fileID: 1530708826}
  m_Enabled: 1
  m_EditorHideFlags: 0
  m_Script: {fileID: 11500000, guid: 487d4ec48d395804ebcbd7cb296ff93c, type: 3}
  m_Name: 
  m_EditorClassIdentifier: 
  m_Reticle: {fileID: 1806677642}
  m_Radial: {fileID: 1806677643}
  m_HowToUseFader: {fileID: 1528763240}
  m_HowToUseSlider: {fileID: 1138161144}
  m_HowToUseConfirmFader: {fileID: 855431571}
  m_HowToUseConfirmSlider: {fileID: 453955610}
  m_ReturnFader: {fileID: 1257493205}
--- !u!1 &1544473573
GameObject:
  m_ObjectHideFlags: 0
  m_PrefabParentObject: {fileID: 118644, guid: 863a0315eb7aa5349ba3dd88bfdbc120, type: 2}
  m_PrefabInternal: {fileID: 0}
  serializedVersion: 5
  m_Component:
  - component: {fileID: 1544473574}
  m_Layer: 5
  m_Name: Fill Area
  m_TagString: Untagged
  m_Icon: {fileID: 0}
  m_NavMeshLayer: 0
  m_StaticEditorFlags: 0
  m_IsActive: 1
--- !u!224 &1544473574
RectTransform:
  m_ObjectHideFlags: 0
  m_PrefabParentObject: {fileID: 22409594, guid: 863a0315eb7aa5349ba3dd88bfdbc120,
    type: 2}
  m_PrefabInternal: {fileID: 0}
  m_GameObject: {fileID: 1544473573}
  m_LocalRotation: {x: 0, y: 0, z: 0, w: 1}
  m_LocalPosition: {x: 0, y: 0, z: 0}
  m_LocalScale: {x: 1, y: 1, z: 1}
  m_Children:
  - {fileID: 1312647934}
  m_Father: {fileID: 1812059125}
  m_RootOrder: 1
  m_LocalEulerAnglesHint: {x: 0, y: 0, z: 0}
  m_AnchorMin: {x: 0, y: 0}
  m_AnchorMax: {x: 1, y: 1}
  m_AnchoredPosition: {x: 0, y: 0}
  m_SizeDelta: {x: 0, y: 0}
  m_Pivot: {x: 0.5, y: 0.5}
--- !u!1 &1591880577
GameObject:
  m_ObjectHideFlags: 0
  m_PrefabParentObject: {fileID: 0}
  m_PrefabInternal: {fileID: 0}
  serializedVersion: 5
  m_Component:
  - component: {fileID: 1591880578}
  m_Layer: 0
  m_Name: GUI
  m_TagString: Untagged
  m_Icon: {fileID: 0}
  m_NavMeshLayer: 0
  m_StaticEditorFlags: 0
  m_IsActive: 1
--- !u!4 &1591880578
Transform:
  m_ObjectHideFlags: 0
  m_PrefabParentObject: {fileID: 0}
  m_PrefabInternal: {fileID: 0}
  m_GameObject: {fileID: 1591880577}
  m_LocalRotation: {x: 0, y: 0, z: 0, w: 1}
  m_LocalPosition: {x: 0, y: 0, z: 0}
  m_LocalScale: {x: 1, y: 1, z: 1}
  m_Children:
  - {fileID: 1528763239}
  - {fileID: 1257493204}
  - {fileID: 855431570}
  - {fileID: 143249927}
  m_Father: {fileID: 0}
  m_RootOrder: 2
  m_LocalEulerAnglesHint: {x: 0, y: 0, z: 0}
--- !u!1 &1672152656
GameObject:
  m_ObjectHideFlags: 0
  m_PrefabParentObject: {fileID: 182974, guid: cb6e955ed2fa8094eaf245a9707e581a, type: 2}
  m_PrefabInternal: {fileID: 0}
  serializedVersion: 5
  m_Component:
  - component: {fileID: 1672152657}
  - component: {fileID: 1672152659}
  - component: {fileID: 1672152658}
  m_Layer: 5
  m_Name: Title
  m_TagString: Untagged
  m_Icon: {fileID: 0}
  m_NavMeshLayer: 0
  m_StaticEditorFlags: 0
  m_IsActive: 1
--- !u!224 &1672152657
RectTransform:
  m_ObjectHideFlags: 0
  m_PrefabParentObject: {fileID: 22410876, guid: cb6e955ed2fa8094eaf245a9707e581a,
    type: 2}
  m_PrefabInternal: {fileID: 0}
  m_GameObject: {fileID: 1672152656}
  m_LocalRotation: {x: 0, y: 0, z: 0, w: 1}
  m_LocalPosition: {x: 0, y: 0, z: 0}
  m_LocalScale: {x: 1, y: 1, z: 1}
  m_Children: []
  m_Father: {fileID: 563393747}
  m_RootOrder: 0
  m_LocalEulerAnglesHint: {x: 0, y: 0, z: 0}
  m_AnchorMin: {x: 0.5, y: 0.5}
  m_AnchorMax: {x: 0.5, y: 0.5}
  m_AnchoredPosition: {x: 0, y: 18}
  m_SizeDelta: {x: 58, y: 18}
  m_Pivot: {x: 0.5, y: 0}
--- !u!114 &1672152658
MonoBehaviour:
  m_ObjectHideFlags: 0
  m_PrefabParentObject: {fileID: 11405656, guid: cb6e955ed2fa8094eaf245a9707e581a,
    type: 2}
  m_PrefabInternal: {fileID: 0}
  m_GameObject: {fileID: 1672152656}
  m_Enabled: 1
  m_EditorHideFlags: 0
  m_Script: {fileID: 708705254, guid: f5f67c52d1564df4a8936ccd202a3bd8, type: 3}
  m_Name: 
  m_EditorClassIdentifier: 
  m_Material: {fileID: 0}
  m_Color: {r: 0.13333334, g: 0.17254902, b: 0.21568628, a: 1}
  m_RaycastTarget: 1
  m_OnCullStateChanged:
    m_PersistentCalls:
      m_Calls: []
    m_TypeName: UnityEngine.UI.MaskableGraphic+CullStateChangedEvent, UnityEngine.UI,
      Version=1.0.0.0, Culture=neutral, PublicKeyToken=null
  m_FontData:
    m_Font: {fileID: 12800000, guid: 8c740fb154a0e534aa1c489395c538fb, type: 3}
    m_FontSize: 20
    m_FontStyle: 0
    m_BestFit: 0
    m_MinSize: 10
    m_MaxSize: 40
    m_Alignment: 4
    m_AlignByGeometry: 0
    m_RichText: 1
    m_HorizontalOverflow: 1
    m_VerticalOverflow: 1
    m_LineSpacing: 1
  m_Text: Going Back
--- !u!222 &1672152659
CanvasRenderer:
  m_ObjectHideFlags: 0
  m_PrefabParentObject: {fileID: 22202296, guid: cb6e955ed2fa8094eaf245a9707e581a,
    type: 2}
  m_PrefabInternal: {fileID: 0}
  m_GameObject: {fileID: 1672152656}
--- !u!1 &1739449732
GameObject:
  m_ObjectHideFlags: 0
  m_PrefabParentObject: {fileID: 115988, guid: 863a0315eb7aa5349ba3dd88bfdbc120, type: 2}
  m_PrefabInternal: {fileID: 0}
  serializedVersion: 5
  m_Component:
  - component: {fileID: 1739449733}
  - component: {fileID: 1739449734}
  m_Layer: 5
  m_Name: Slider
  m_TagString: Untagged
  m_Icon: {fileID: 0}
  m_NavMeshLayer: 0
  m_StaticEditorFlags: 0
  m_IsActive: 1
--- !u!224 &1739449733
RectTransform:
  m_ObjectHideFlags: 0
  m_PrefabParentObject: {fileID: 22493394, guid: 863a0315eb7aa5349ba3dd88bfdbc120,
    type: 2}
  m_PrefabInternal: {fileID: 0}
  m_GameObject: {fileID: 1739449732}
  m_LocalRotation: {x: 0, y: 0, z: 0, w: 1}
  m_LocalPosition: {x: 0, y: 0, z: 0}
  m_LocalScale: {x: 1, y: 1, z: 1}
  m_Children:
  - {fileID: 867218952}
  - {fileID: 2115544538}
  - {fileID: 653153514}
  m_Father: {fileID: 453955609}
  m_RootOrder: 0
  m_LocalEulerAnglesHint: {x: 0, y: 0, z: 0}
  m_AnchorMin: {x: 0.5, y: 0.5}
  m_AnchorMax: {x: 0.5, y: 0.5}
  m_AnchoredPosition: {x: 0, y: 0}
  m_SizeDelta: {x: 30, y: 6}
  m_Pivot: {x: 0.5, y: 0.5}
--- !u!114 &1739449734
MonoBehaviour:
  m_ObjectHideFlags: 0
  m_PrefabParentObject: {fileID: 11420936, guid: 863a0315eb7aa5349ba3dd88bfdbc120,
    type: 2}
  m_PrefabInternal: {fileID: 0}
  m_GameObject: {fileID: 1739449732}
  m_Enabled: 1
  m_EditorHideFlags: 0
  m_Script: {fileID: -113659843, guid: f5f67c52d1564df4a8936ccd202a3bd8, type: 3}
  m_Name: 
  m_EditorClassIdentifier: 
  m_Navigation:
    m_Mode: 3
    m_SelectOnUp: {fileID: 0}
    m_SelectOnDown: {fileID: 0}
    m_SelectOnLeft: {fileID: 0}
    m_SelectOnRight: {fileID: 0}
  m_Transition: 0
  m_Colors:
    m_NormalColor: {r: 1, g: 1, b: 1, a: 1}
    m_HighlightedColor: {r: 0.9607843, g: 0.9607843, b: 0.9607843, a: 1}
    m_PressedColor: {r: 0.78431374, g: 0.78431374, b: 0.78431374, a: 1}
    m_DisabledColor: {r: 0.78431374, g: 0.78431374, b: 0.78431374, a: 0.5019608}
    m_ColorMultiplier: 1
    m_FadeDuration: 0.1
  m_SpriteState:
    m_HighlightedSprite: {fileID: 0}
    m_PressedSprite: {fileID: 0}
    m_DisabledSprite: {fileID: 0}
  m_AnimationTriggers:
    m_NormalTrigger: Normal
    m_HighlightedTrigger: Highlighted
    m_PressedTrigger: Pressed
    m_DisabledTrigger: Disabled
  m_Interactable: 0
  m_TargetGraphic: {fileID: 0}
  m_FillRect: {fileID: 899882834}
  m_HandleRect: {fileID: 0}
  m_Direction: 0
  m_MinValue: 0
  m_MaxValue: 1
  m_WholeNumbers: 0
  m_Value: 0
  m_OnValueChanged:
    m_PersistentCalls:
      m_Calls: []
    m_TypeName: UnityEngine.UI.Slider+SliderEvent, UnityEngine.UI, Version=1.0.0.0,
      Culture=neutral, PublicKeyToken=null
--- !u!114 &1806677642 stripped
MonoBehaviour:
  m_PrefabParentObject: {fileID: 11420606, guid: ccf8c8cc05aad7b40a8deb4f73296da4,
    type: 2}
  m_PrefabInternal: {fileID: 1326566810}
  m_Script: {fileID: 11500000, guid: aff17147c9606014f8e8f74f255d466a, type: 3}
--- !u!114 &1806677643 stripped
MonoBehaviour:
  m_PrefabParentObject: {fileID: 11458036, guid: ccf8c8cc05aad7b40a8deb4f73296da4,
    type: 2}
  m_PrefabInternal: {fileID: 1326566810}
  m_Script: {fileID: 11500000, guid: 03fb8390bc96a7f4cafebf5efc362f62, type: 3}
--- !u!114 &1806677645 stripped
MonoBehaviour:
  m_PrefabParentObject: {fileID: 11427250, guid: ccf8c8cc05aad7b40a8deb4f73296da4,
    type: 2}
  m_PrefabInternal: {fileID: 1326566810}
  m_Script: {fileID: 11500000, guid: 8902ef04f323e444b98d2e4fd80a56ab, type: 3}
--- !u!4 &1806677651 stripped
Transform:
  m_PrefabParentObject: {fileID: 493278, guid: ccf8c8cc05aad7b40a8deb4f73296da4, type: 2}
  m_PrefabInternal: {fileID: 1326566810}
--- !u!1 &1808707146
GameObject:
  m_ObjectHideFlags: 0
  m_PrefabParentObject: {fileID: 0}
  m_PrefabInternal: {fileID: 0}
  serializedVersion: 5
  m_Component:
  - component: {fileID: 1808707147}
  m_Layer: 0
  m_Name: Background
  m_TagString: Untagged
  m_Icon: {fileID: 0}
  m_NavMeshLayer: 0
  m_StaticEditorFlags: 0
  m_IsActive: 1
--- !u!4 &1808707147
Transform:
  m_ObjectHideFlags: 0
  m_PrefabParentObject: {fileID: 0}
  m_PrefabInternal: {fileID: 0}
  m_GameObject: {fileID: 1808707146}
  m_LocalRotation: {x: 0, y: 0, z: 0, w: 1}
  m_LocalPosition: {x: 0, y: 0, z: 0}
  m_LocalScale: {x: 1, y: 1, z: 1}
  m_Children:
  - {fileID: 184923207}
  - {fileID: 205350875}
  m_Father: {fileID: 0}
  m_RootOrder: 0
  m_LocalEulerAnglesHint: {x: 0, y: 0, z: 0}
--- !u!1 &1812059124
GameObject:
  m_ObjectHideFlags: 0
  m_PrefabParentObject: {fileID: 115988, guid: 863a0315eb7aa5349ba3dd88bfdbc120, type: 2}
  m_PrefabInternal: {fileID: 0}
  serializedVersion: 5
  m_Component:
  - component: {fileID: 1812059125}
  - component: {fileID: 1812059126}
  m_Layer: 5
  m_Name: Slider
  m_TagString: Untagged
  m_Icon: {fileID: 0}
  m_NavMeshLayer: 0
  m_StaticEditorFlags: 0
  m_IsActive: 1
--- !u!224 &1812059125
RectTransform:
  m_ObjectHideFlags: 0
  m_PrefabParentObject: {fileID: 22493394, guid: 863a0315eb7aa5349ba3dd88bfdbc120,
    type: 2}
  m_PrefabInternal: {fileID: 0}
  m_GameObject: {fileID: 1812059124}
  m_LocalRotation: {x: 0, y: 0, z: 0, w: 1}
  m_LocalPosition: {x: 0, y: 0, z: -0}
  m_LocalScale: {x: 1, y: 1, z: 1}
  m_Children:
  - {fileID: 1987363621}
  - {fileID: 1544473574}
  - {fileID: 513837552}
  m_Father: {fileID: 1487780014}
  m_RootOrder: 0
  m_LocalEulerAnglesHint: {x: 0, y: 0, z: 0}
  m_AnchorMin: {x: 0.5, y: 0.5}
  m_AnchorMax: {x: 0.5, y: 0.5}
  m_AnchoredPosition: {x: 0, y: -4.4}
  m_SizeDelta: {x: 30, y: 6}
  m_Pivot: {x: 0.5, y: 0.5}
--- !u!114 &1812059126
MonoBehaviour:
  m_ObjectHideFlags: 0
  m_PrefabParentObject: {fileID: 11420936, guid: 863a0315eb7aa5349ba3dd88bfdbc120,
    type: 2}
  m_PrefabInternal: {fileID: 0}
  m_GameObject: {fileID: 1812059124}
  m_Enabled: 1
  m_EditorHideFlags: 0
  m_Script: {fileID: -113659843, guid: f5f67c52d1564df4a8936ccd202a3bd8, type: 3}
  m_Name: 
  m_EditorClassIdentifier: 
  m_Navigation:
    m_Mode: 3
    m_SelectOnUp: {fileID: 0}
    m_SelectOnDown: {fileID: 0}
    m_SelectOnLeft: {fileID: 0}
    m_SelectOnRight: {fileID: 0}
  m_Transition: 0
  m_Colors:
    m_NormalColor: {r: 1, g: 1, b: 1, a: 1}
    m_HighlightedColor: {r: 0.9607843, g: 0.9607843, b: 0.9607843, a: 1}
    m_PressedColor: {r: 0.78431374, g: 0.78431374, b: 0.78431374, a: 1}
    m_DisabledColor: {r: 0.78431374, g: 0.78431374, b: 0.78431374, a: 0.5019608}
    m_ColorMultiplier: 1
    m_FadeDuration: 0.1
  m_SpriteState:
    m_HighlightedSprite: {fileID: 0}
    m_PressedSprite: {fileID: 0}
    m_DisabledSprite: {fileID: 0}
  m_AnimationTriggers:
    m_NormalTrigger: Normal
    m_HighlightedTrigger: Highlighted
    m_PressedTrigger: Pressed
    m_DisabledTrigger: Disabled
  m_Interactable: 0
  m_TargetGraphic: {fileID: 0}
  m_FillRect: {fileID: 1312647934}
  m_HandleRect: {fileID: 0}
  m_Direction: 0
  m_MinValue: 0
  m_MaxValue: 1
  m_WholeNumbers: 0
  m_Value: 0
  m_OnValueChanged:
    m_PersistentCalls:
      m_Calls: []
    m_TypeName: UnityEngine.UI.Slider+SliderEvent, UnityEngine.UI, Version=1.0.0.0,
      Culture=neutral, PublicKeyToken=null
--- !u!1 &1813455384
GameObject:
  m_ObjectHideFlags: 0
  m_PrefabParentObject: {fileID: 161320, guid: 50ce765ecb72518498e9608f19020f8a, type: 2}
  m_PrefabInternal: {fileID: 0}
  serializedVersion: 5
  m_Component:
  - component: {fileID: 1813455385}
  - component: {fileID: 1813455387}
  - component: {fileID: 1813455386}
  m_Layer: 5
  m_Name: GUIArrowsRight
  m_TagString: Untagged
  m_Icon: {fileID: 0}
  m_NavMeshLayer: 0
  m_StaticEditorFlags: 0
  m_IsActive: 1
--- !u!4 &1813455385
Transform:
  m_ObjectHideFlags: 0
  m_PrefabParentObject: {fileID: 468586, guid: 50ce765ecb72518498e9608f19020f8a, type: 2}
  m_PrefabInternal: {fileID: 0}
  m_GameObject: {fileID: 1813455384}
  m_LocalRotation: {x: 0, y: 0, z: 0, w: 1}
  m_LocalPosition: {x: 0, y: 0, z: 0}
  m_LocalScale: {x: 1, y: 1, z: 1}
  m_Children: []
  m_Father: {fileID: 143249927}
  m_RootOrder: 2
  m_LocalEulerAnglesHint: {x: 0, y: 0, z: 0}
--- !u!23 &1813455386
MeshRenderer:
  m_ObjectHideFlags: 0
  m_PrefabParentObject: {fileID: 2352112, guid: 50ce765ecb72518498e9608f19020f8a,
    type: 2}
  m_PrefabInternal: {fileID: 0}
  m_GameObject: {fileID: 1813455384}
  m_Enabled: 1
  m_CastShadows: 1
  m_ReceiveShadows: 1
  m_MotionVectors: 1
  m_LightProbeUsage: 1
  m_ReflectionProbeUsage: 1
  m_Materials:
  - {fileID: 2100000, guid: 283e029957e4e39459110d36502c7bc4, type: 2}
  m_StaticBatchInfo:
    firstSubMesh: 0
    subMeshCount: 0
  m_StaticBatchRoot: {fileID: 0}
  m_ProbeAnchor: {fileID: 0}
  m_LightProbeVolumeOverride: {fileID: 0}
  m_ScaleInLightmap: 1
  m_PreserveUVs: 0
  m_IgnoreNormalsForChartDetection: 0
  m_ImportantGI: 0
  m_SelectedEditorRenderState: 3
  m_MinimumChartSize: 4
  m_AutoUVMaxDistance: 0.5
  m_AutoUVMaxAngle: 89
  m_LightmapParameters: {fileID: 0}
  m_SortingLayerID: 0
  m_SortingLayer: 0
  m_SortingOrder: 0
--- !u!33 &1813455387
MeshFilter:
  m_ObjectHideFlags: 0
  m_PrefabParentObject: {fileID: 3314904, guid: 50ce765ecb72518498e9608f19020f8a,
    type: 2}
  m_PrefabInternal: {fileID: 0}
  m_GameObject: {fileID: 1813455384}
  m_Mesh: {fileID: 4300006, guid: eb9a01d178a85eb41b99822b6acad79b, type: 3}
--- !u!1 &1903277235
GameObject:
  m_ObjectHideFlags: 0
  m_PrefabParentObject: {fileID: 189448, guid: 2dda78a7affe63a4d81e05200cc3429d, type: 2}
  m_PrefabInternal: {fileID: 0}
  serializedVersion: 5
  m_Component:
  - component: {fileID: 205350875}
  - component: {fileID: 1903277238}
  - component: {fileID: 1903277237}
  - component: {fileID: 1903277236}
  m_Layer: 0
  m_Name: SharedBlobShadow
  m_TagString: Untagged
  m_Icon: {fileID: 0}
  m_NavMeshLayer: 0
  m_StaticEditorFlags: 0
  m_IsActive: 1
--- !u!23 &1903277236
MeshRenderer:
  m_ObjectHideFlags: 0
  m_PrefabParentObject: {fileID: 2309980, guid: 2dda78a7affe63a4d81e05200cc3429d,
    type: 2}
  m_PrefabInternal: {fileID: 0}
  m_GameObject: {fileID: 1903277235}
  m_Enabled: 1
  m_CastShadows: 1
  m_ReceiveShadows: 1
  m_MotionVectors: 1
  m_LightProbeUsage: 1
  m_ReflectionProbeUsage: 1
  m_Materials:
  - {fileID: 2100000, guid: 41f3fb97620cda2479bf1b170b998c0c, type: 2}
  m_StaticBatchInfo:
    firstSubMesh: 0
    subMeshCount: 0
  m_StaticBatchRoot: {fileID: 0}
  m_ProbeAnchor: {fileID: 0}
  m_LightProbeVolumeOverride: {fileID: 0}
  m_ScaleInLightmap: 1
  m_PreserveUVs: 1
  m_IgnoreNormalsForChartDetection: 0
  m_ImportantGI: 0
  m_SelectedEditorRenderState: 3
  m_MinimumChartSize: 4
  m_AutoUVMaxDistance: 0.5
  m_AutoUVMaxAngle: 89
  m_LightmapParameters: {fileID: 0}
  m_SortingLayerID: 0
  m_SortingLayer: 0
  m_SortingOrder: 0
--- !u!64 &1903277237
MeshCollider:
  m_ObjectHideFlags: 0
  m_PrefabParentObject: {fileID: 6465560, guid: 2dda78a7affe63a4d81e05200cc3429d,
    type: 2}
  m_PrefabInternal: {fileID: 0}
  m_GameObject: {fileID: 1903277235}
  m_Material: {fileID: 0}
  m_IsTrigger: 0
  m_Enabled: 1
  serializedVersion: 2
  m_Convex: 0
  m_InflateMesh: 0
  m_SkinWidth: 0.01
  m_Mesh: {fileID: 10210, guid: 0000000000000000e000000000000000, type: 0}
--- !u!33 &1903277238
MeshFilter:
  m_ObjectHideFlags: 0
  m_PrefabParentObject: {fileID: 3355652, guid: 2dda78a7affe63a4d81e05200cc3429d,
    type: 2}
  m_PrefabInternal: {fileID: 0}
  m_GameObject: {fileID: 1903277235}
  m_Mesh: {fileID: 10210, guid: 0000000000000000e000000000000000, type: 0}
--- !u!1 &1987363620
GameObject:
  m_ObjectHideFlags: 0
  m_PrefabParentObject: {fileID: 146514, guid: 863a0315eb7aa5349ba3dd88bfdbc120, type: 2}
  m_PrefabInternal: {fileID: 0}
  serializedVersion: 5
  m_Component:
  - component: {fileID: 1987363621}
  - component: {fileID: 1987363622}
  - component: {fileID: 673076685}
  m_Layer: 5
  m_Name: Background
  m_TagString: Untagged
  m_Icon: {fileID: 0}
  m_NavMeshLayer: 0
  m_StaticEditorFlags: 0
  m_IsActive: 1
--- !u!224 &1987363621
RectTransform:
  m_ObjectHideFlags: 0
  m_PrefabParentObject: {fileID: 22418684, guid: 863a0315eb7aa5349ba3dd88bfdbc120,
    type: 2}
  m_PrefabInternal: {fileID: 0}
  m_GameObject: {fileID: 1987363620}
  m_LocalRotation: {x: 0, y: 0, z: 0, w: 1}
  m_LocalPosition: {x: 0, y: 0, z: 0}
  m_LocalScale: {x: 1, y: 1, z: 1}
  m_Children: []
  m_Father: {fileID: 1812059125}
  m_RootOrder: 0
  m_LocalEulerAnglesHint: {x: 0, y: 0, z: 0}
  m_AnchorMin: {x: 0, y: 0}
  m_AnchorMax: {x: 1, y: 1}
  m_AnchoredPosition: {x: 0, y: 0}
  m_SizeDelta: {x: 0, y: 0}
  m_Pivot: {x: 0.5, y: 0.5}
--- !u!222 &1987363622
CanvasRenderer:
  m_ObjectHideFlags: 0
  m_PrefabParentObject: {fileID: 22260174, guid: 863a0315eb7aa5349ba3dd88bfdbc120,
    type: 2}
  m_PrefabInternal: {fileID: 0}
  m_GameObject: {fileID: 1987363620}
--- !u!1 &2115544537
GameObject:
  m_ObjectHideFlags: 0
  m_PrefabParentObject: {fileID: 118644, guid: 863a0315eb7aa5349ba3dd88bfdbc120, type: 2}
  m_PrefabInternal: {fileID: 0}
  serializedVersion: 5
  m_Component:
  - component: {fileID: 2115544538}
  m_Layer: 5
  m_Name: Fill Area
  m_TagString: Untagged
  m_Icon: {fileID: 0}
  m_NavMeshLayer: 0
  m_StaticEditorFlags: 0
  m_IsActive: 1
--- !u!224 &2115544538
RectTransform:
  m_ObjectHideFlags: 0
  m_PrefabParentObject: {fileID: 22409594, guid: 863a0315eb7aa5349ba3dd88bfdbc120,
    type: 2}
  m_PrefabInternal: {fileID: 0}
  m_GameObject: {fileID: 2115544537}
  m_LocalRotation: {x: 0, y: 0, z: 0, w: 1}
  m_LocalPosition: {x: 0, y: 0, z: 0}
  m_LocalScale: {x: 1, y: 1, z: 1}
  m_Children:
  - {fileID: 899882834}
  m_Father: {fileID: 1739449733}
  m_RootOrder: 1
  m_LocalEulerAnglesHint: {x: 0, y: 0, z: 0}
  m_AnchorMin: {x: 0, y: 0}
  m_AnchorMax: {x: 1, y: 1}
  m_AnchoredPosition: {x: 0, y: 0}
  m_SizeDelta: {x: 0, y: 0}
  m_Pivot: {x: 0.5, y: 0.5}
